<svg xmlns="http://www.w3.org/2000/svg" width="200" height="200" fill="none" viewBox="0 0 200 200">
    <path fill="url(#prefix__paint0_linear)" fill-rule="evenodd" d="M112.5 187.5c0 6.875-5.625 12.5-12.5 12.5H12.5C5.625 200 0 194.375 0 187.5v-175C0 5.625 5.625 0 12.5 0H100c6.875 0 12.5 5.625 12.5 12.5v131.25h-6.25V31.25h-100v137.5h100v-6.25h6.25v25zM6.25 25h100V12.5c0-3.438-2.812-6.25-6.25-6.25H12.5c-3.438 0-6.25 2.813-6.25 6.25V25zM100 193.75c3.438 0 6.25-2.812 6.25-6.25V175h-100v12.5c0 3.438 2.813 6.25 6.25 6.25H100zM40.625 12.5h-6.25v6.25h6.25V12.5zm21.875 175v-6.25H50v6.25h12.5zm-15.625-175h31.25v6.25h-31.25V12.5zM162.5 98.534v79.591c0 6.875-5.625 12.5-12.5 12.5s-12.5-5.625-12.5-12.5V125c0-3.438-2.812-6.25-6.25-6.25S125 121.562 125 125v18.75c0 6.875-5.625 12.5-12.5 12.5H31.25c-6.875 0-12.5-5.625-12.5-12.5s5.625-12.5 12.5-12.5h50c3.438 0 6.25-2.812 6.25-6.25s-2.813-6.25-6.25-6.25H65.625c-6.875 0-12.5-5.625-12.5-12.5v-12.5h6.25v12.5c0 3.438 2.813 6.25 6.25 6.25H81.25c6.875 0 12.5 5.625 12.5 12.5s-5.625 12.5-12.5 12.5h-50c-3.438 0-6.25 2.812-6.25 6.25s2.813 6.25 6.25 6.25h81.25c3.438 0 6.25-2.812 6.25-6.25V125c0-6.875 5.625-12.5 12.5-12.5s12.5 5.625 12.5 12.5v53.125c0 3.437 2.812 6.25 6.25 6.25s6.25-2.813 6.25-6.25V98.534c-6.752-4.722-37.5-28.073-37.5-54.784V25c0-7.677 5.292-13.91 12.5-15.324V6.25c0-3.438 2.812-6.25 6.25-6.25h6.25c3.438 0 6.25 2.813 6.25 6.25v12.5c0 3.438-2.812 6.25-6.25 6.25h-6.25c-3.438 0-6.25-2.813-6.25-6.25v-2.624C127.549 17.368 125 20.792 125 25v18.75c0 13.75 15.312 25 34.375 25 19.063 0 34.375-11.25 34.375-25V25c0-4.208-2.549-7.632-6.25-8.874v2.624c0 3.438-2.812 6.25-6.25 6.25H175c-3.438 0-6.25-2.813-6.25-6.25V6.25c0-3.438 2.812-6.25 6.25-6.25h6.25c3.438 0 6.25 2.813 6.25 6.25v3.426C194.708 11.089 200 17.323 200 25v18.75c0 26.71-30.748 50.063-37.5 54.784zm-3.125-5.409c4.462-3.298 16.63-12.737 25.218-24.88C177.674 72.47 168.918 75 159.375 75s-18.299-2.53-25.218-6.754c8.588 12.142 20.756 21.581 25.218 24.879zM137.5 18.75h6.25V6.25h-6.25v12.5zm43.75 0H175V6.25h6.25v12.5zM34.375 65.625c0 12.188 9.688 21.875 21.875 21.875 12.188 0 21.875-9.688 21.875-21.875 0-12.188-9.688-21.875-21.875-21.875-12.188 0-21.875 9.688-21.875 21.875zm6.25 0C40.625 56.875 47.5 50 56.25 50s15.625 6.875 15.625 15.625S65 81.25 56.25 81.25s-15.625-6.875-15.625-15.625zm15.625 6.25c3.452 0 6.25-2.798 6.25-6.25s-2.798-6.25-6.25-6.25S50 62.173 50 65.625s2.798 6.25 6.25 6.25z" clip-rule="evenodd"/>
    <defs>
        <linearGradient id="prefix__paint0_linear" x1=".057" x2="200.282" y1="79.339" y2="79.339" gradientUnits="userSpaceOnUse">
            <stop stop-color="#EC8427"/>
            <stop offset="1" stop-color="#5F378B"/>
        </linearGradient>
    </defs>
</svg>
