<svg xmlns="http://www.w3.org/2000/svg" width="20" height="14" viewBox="0 0 20 14">
    <path fill="#5F378B" fill-rule="evenodd" d="M19.728 6.331L13.776.277a.919.919 0 0 0-1.315 0 .957.957 0 0 0 0 1.338l4.364 4.44H.93A.938.938 0 0 0 0 7c0 .522.416.946.93.946h15.895l-4.364 4.44a.957.957 0 0 0 0 1.337.92.92 0 0 0 1.315 0l5.952-6.054a.957.957 0 0 0 0-1.338z"/>
</svg>
