<svg xmlns="http://www.w3.org/2000/svg" width="20" height="20" fill="none" viewBox="0 0 20 20">
    <path fill="#EC8427" fill-rule="evenodd" d="M16.43 9.286l-6.428 6.428-6.429-6.428 2.143-2.143L8.573 10V0h2.857v10l2.857-2.857 2.143 2.143zM20 17.143H0V20h20v-2.857z" clip-rule="evenodd"/>
</svg>
