<svg xmlns="http://www.w3.org/2000/svg" width="200" height="200" fill="none" viewBox="0 0 200 200">
    <path fill="url(#prefix__paint0_linear)" fill-rule="evenodd" d="M96.901 30.95c-7.207-1.414-12.5-7.648-12.5-15.325C84.401 6.875 91.276 0 100.026 0s15.625 6.875 15.625 15.625c0 7.677-5.292 13.91-12.5 15.324v85.962c7.343-3.716 18.75-10.596 18.75-20.036 0-10.937-8.125-15.625-12.5-15.625V75c7.813 0 18.75 7.5 18.75 21.875 0 12.391-12.677 20.556-21.144 25.058 7.597 4.057 17.707 11.041 17.708 21.817.312 8.438-3.438 14.688-10.938 18.438l-2.813-5.625c5-2.5 7.5-6.875 7.5-12.813 0-8.75-10.615-14.233-17.367-17.72-.482-.249-.945-.488-1.382-.717l-1.563-.625.163-.326-1.101-.612c-7.5-3.437-25.313-12.187-25.313-26.875C71.901 82.5 82.84 75 90.651 75v6.25c-4.375 0-12.5 4.688-12.5 15.625 0 9.44 11.408 16.087 18.75 19.94V30.949zm-6.25-15.325c0-5.312 4.063-9.375 9.375-9.375 5.313 0 9.375 4.063 9.375 9.375 0 5.313-4.062 9.375-9.375 9.375-5.312 0-9.375-4.062-9.375-9.375zm12.5 118.75h-6.25v26.246c-6.464-3.295-15.625-8.637-15.625-16.871 0-5.937 5-9.375 10.938-12.812l-3.125-5.313-.228.134c-5.33 3.134-13.835 8.133-13.835 17.991 0 12.884 13.215 19.448 20.915 23.272l.426.212.534.266v25.852c-5.376-1.397-9.375-6.305-9.375-12.102 0-2.812.938-5.312 2.5-7.5l-5-3.75c-2.5 3.125-3.75 7.188-3.75 11.25 0 10.313 8.438 18.75 18.75 18.75 10.313 0 18.75-8.437 18.75-18.75 0-9.835-9.37-14.531-15.625-17.656v-29.219zm9.375 46.875c0 5.797-3.999 10.705-9.375 12.102v-22.739c5.55 2.891 9.375 5.864 9.375 10.637zM90.653 68.75h-12.5C29.716 68.75 5.966 50 .341 32.188c-.625-.938-.313-1.875.312-2.813.625-.625 1.563-1.25 2.5-1.25 26.563 0 35.938-5.625 43.75-10.312C51.592 15 55.967 12.5 62.53 12.5c8.437 0 15.624 7.188 15.624 15.625V37.5c0 3.438 2.813 6.25 6.25 6.25h6.25V50h-6.25c-6.875 0-12.5-5.625-12.5-12.5v-9.375c0-5.312-5-9.375-9.375-9.375-4.851 0-7.938 1.765-12.114 4.154l-.386.221-.167.098c-7.482 4.365-17.516 10.22-42.02 10.84 3.506 6.72 10.084 13.302 20.31 18.408v-8.72h6.25v11.47c1.974.762 4.057 1.475 6.25 2.13V46.876h6.25v12.12c2.004.458 4.086.872 6.25 1.24V50h6.25v11.133c2.02.241 4.103.443 6.25.604v-8.612h6.25v8.954c2.032.072 4.116.109 6.252.109h12.5v6.562zm18.748 0h12.5c48.438 0 72.188-18.75 77.813-36.562.312-.938.312-1.875-.313-2.813-.625-.625-1.562-1.25-2.5-1.25-26.562 0-35.937-5.625-43.75-10.313-4.687-2.812-9.062-5.312-15.625-5.312-8.437 0-15.625 7.188-15.625 15.625V37.5c0 3.438-2.812 6.25-6.25 6.25h-6.25V50h6.25c6.875 0 12.5-5.625 12.5-12.5v-9.375c0-5.312 5-9.375 9.375-9.375 4.852 0 7.938 1.765 12.114 4.154l.386.221c7.5 4.688 17.5 10.625 42.188 11.25-3.506 6.72-10.086 13.303-20.313 18.41V43.75h-6.25v11.784c-1.974.762-4.056 1.475-6.25 2.13V46.876h-6.25v12.432c-2.003.458-4.086.873-6.25 1.24V50h-6.25v11.446c-2.02.24-4.103.443-6.25.603v-8.924h-6.25v9.266c-2.031.072-4.114.11-6.25.11h-12.5v6.25z" clip-rule="evenodd"/>
    <defs>
        <linearGradient id="prefix__paint0_linear" x1="11.285" x2="205.479" y1="94.949" y2="60.707" gradientUnits="userSpaceOnUse">
            <stop stop-color="#EC8427"/>
            <stop offset="1" stop-color="#5F378B"/>
        </linearGradient>
    </defs>
</svg>
