<svg xmlns="http://www.w3.org/2000/svg" width="158" height="162" fill="none" viewBox="0 0 158 162">
    <g filter="url(#prefix__filter0_f)">
        <path fill="url(#prefix__paint0_linear)" fill-opacity=".8" d="M124.649 73.382c-.661 0-1.244.864-1.675 2.24-.63 2.033-2.519 3.377-4.563 3.377h-2.443c-1.076 0-1.951-.864-2.059-1.984-.077-.72-.169-1.44-.276-2.145-.185-1.12.445-2.209 1.49-2.497h.031c1.598-.448 3.334.128 4.286 1.52.492.705.968 1.09 1.383.977.891-.256 1.014-2.753.277-5.602-.738-2.849-2.044-4.961-2.935-4.705-.399.112-.645.688-.722 1.568-.154 1.713-1.398 3.105-2.981 3.553-1.045.288-2.105-.32-2.489-1.376-.246-.672-.507-1.345-.799-2-.445-1.025-.107-2.241.83-2.802l2.105-1.264c1.782-1.072 4.056-.896 5.577.544 1.03.977 1.967 1.409 2.536 1.072 1.137-.688.414-4.193-1.598-7.842-2.029-3.65-4.579-6.05-5.716-5.362-.569.336-.676 1.393-.369 2.817.43 2.097-.553 4.226-2.335 5.298l-2.105 1.264c-.938.56-2.09.272-2.735-.64-.415-.576-.845-1.152-1.291-1.697-.707-.88-.676-2.144.092-2.944l.031-.032c1.168-1.217 2.95-1.633 4.44-.913.769.368 1.368.432 1.66.128.614-.688-.477-2.929-2.474-5.01-1.997-2.08-4.148-3.232-4.809-2.544-.292.304-.231.944.123 1.728.691 1.553.292 3.41-.876 4.626l-.031.032c-.768.8-1.997.816-2.827.096-.538-.464-1.075-.912-1.629-1.344-.86-.673-1.152-1.873-.614-2.85l1.214-2.192c1.029-1.857 3.088-2.881 5.085-2.433 1.368.304 2.382.208 2.705-.384.66-1.184-1.644-3.857-5.148-5.954-3.503-2.113-6.868-2.849-7.528-1.664-.323.592.092 1.552 1.029 2.64 1.383 1.585 1.552 3.954.522 5.81L95.84 46.67c-.538.976-1.706 1.328-2.689.864-.63-.288-1.275-.576-1.92-.832-1.015-.4-1.614-1.505-1.322-2.593.43-1.664 1.767-2.945 3.411-3.105.83-.08 1.398-.336 1.506-.752.23-.928-1.782-2.289-4.517-3.057-2.735-.768-5.148-.624-5.378.288-.108.416.246.928.937 1.44 1.337.993 1.89 2.817 1.46 4.466l-.016.032c-.276 1.088-1.321 1.744-2.397 1.552-.676-.112-1.367-.208-2.058-.288-1.076-.112-1.906-1.024-1.906-2.144v-2.561c0-2.145 1.291-4.097 3.242-4.754 1.337-.448 2.151-1.056 2.151-1.744 0-1.377-3.272-2.481-7.313-2.481s-7.314 1.104-7.314 2.48c0 .689.83 1.297 2.151 1.745 1.952.657 3.242 2.625 3.242 4.754v2.56c0 1.121-.83 2.017-1.89 2.145-.691.08-1.367.192-2.043.32-1.076.209-2.136-.448-2.413-1.552l-.015-.08c-.43-1.665.123-3.473 1.46-4.465.676-.513 1.044-1.009.937-1.44-.246-.93-2.643-1.057-5.378-.289-2.735.768-4.763 2.129-4.517 3.057.108.416.66.672 1.506.752 1.644.16 2.98 1.457 3.41 3.105l.031.096c.277 1.105-.307 2.209-1.336 2.61-.646.24-1.29.511-1.92.8-.984.447-2.137.095-2.674-.881l-1.245-2.24c-1.03-1.857-.86-4.226.522-5.81.938-1.073 1.353-2.05 1.03-2.641-.66-1.185-4.026-.433-7.529 1.664-3.503 2.113-5.808 4.77-5.147 5.954.322.592 1.337.704 2.704.384 2.013-.448 4.056.576 5.086 2.433l1.23 2.225c.537.976.26 2.192-.615 2.849-.554.432-1.107.864-1.63 1.328-.844.72-2.058.704-2.826-.096l-.047-.048c-1.167-1.216-1.567-3.073-.875-4.626.353-.8.415-1.424.123-1.728-.692-.672-2.843.48-4.84 2.56-1.998 2.081-3.104 4.322-2.443 5.01.292.304.906.24 1.66-.128 1.49-.72 3.272-.304 4.44.913l.03.032c.768.8.784 2.08.093 2.944-.446.56-.876 1.12-1.291 1.697-.645.896-1.798 1.2-2.735.64l-2.105-1.264c-1.782-1.072-2.766-3.217-2.336-5.298.292-1.424.2-2.48-.368-2.817-1.137-.688-3.703 1.713-5.716 5.362-2.028 3.65-2.735 7.154-1.598 7.843.568.336 1.49-.096 2.535-1.073 1.521-1.44 3.795-1.616 5.578-.544l2.09 1.264c.937.56 1.275 1.761.829 2.785-.277.657-.538 1.329-.784 2-.384 1.057-1.444 1.681-2.489 1.393h-.015c-1.598-.448-2.827-1.84-2.98-3.553-.078-.864-.324-1.456-.723-1.568-.891-.256-2.197 1.856-2.935 4.705-.737 2.85-.599 5.362.277 5.602.4.112.891-.256 1.383-.976.952-1.393 2.704-1.969 4.286-1.52l.031.015c1.045.288 1.675 1.377 1.49 2.497-.107.704-.2 1.425-.276 2.145-.108 1.12-.983 1.984-2.059 1.984H39.62c-2.06 0-3.934-1.344-4.564-3.377-.43-1.392-1.014-2.24-1.674-2.24C32.06 73.382 31 76.807 31 81.016c0 4.21 1.06 7.618 2.382 7.618.66 0 1.244-.864 1.674-2.24.63-2.033 2.52-3.377 4.564-3.377h2.458c1.076 0 1.951.864 2.059 1.984.077.72.154 1.44.277 2.145.169 1.12-.446 2.193-1.49 2.497l-.032.016c-1.598.448-3.334-.128-4.286-1.52-.492-.705-.968-1.09-1.383-.977-.891.256-1.014 2.753-.277 5.602.738 2.849 2.044 4.961 2.935 4.705.4-.112.645-.688.722-1.568.154-1.713 1.398-3.105 2.98-3.553l.047-.016c1.06-.288 2.136.32 2.504 1.408.23.688.492 1.36.753 2.017.415 1.024.093 2.208-.845 2.769l-2.105 1.264c-1.782 1.072-4.056.896-5.577-.544-1.03-.977-1.967-1.409-2.535-1.072-1.137.688-.415 4.193 1.597 7.842 2.029 3.649 4.58 6.05 5.716 5.362.569-.336.676-1.393.369-2.817-.43-2.097.553-4.226 2.336-5.298l2.104-1.264c.938-.56 2.09-.272 2.735.64.415.576.846 1.152 1.291 1.712.691.881.676 2.145-.092 2.945l-.015.016c-1.168 1.217-2.95 1.633-4.44.913-.77-.368-1.368-.432-1.66-.128-.646.672.445 2.913 2.443 5.009 1.997 2.081 4.148 3.233 4.809 2.545.292-.304.23-.944-.123-1.728-.691-1.553-.292-3.41.876-4.626l.015-.016c.768-.8 1.982-.816 2.827-.096.538.464 1.076.912 1.644 1.328.876.657 1.153 1.873.615 2.849l-1.214 2.193c-1.03 1.857-3.088 2.881-5.086 2.433-1.367-.304-2.381-.208-2.704.384-.66 1.184 1.644 3.857 5.147 5.954 3.504 2.113 6.868 2.849 7.53 1.664.322-.592-.093-1.552-1.03-2.64-1.383-1.585-1.552-3.954-.523-5.81l1.199-2.177c.538-.976 1.69-1.328 2.673-.864.63.288 1.276.56 1.936.816 1.014.4 1.614 1.504 1.337 2.593-.43 1.664-1.767 2.945-3.411 3.105-.83.08-1.398.336-1.506.752-.246.928 1.783 2.289 4.517 3.057 2.736.768 5.148.624 5.378-.288.108-.416-.246-.928-.937-1.441-1.337-.992-1.89-2.8-1.46-4.465l.016-.032c.276-1.088 1.321-1.745 2.397-1.552.676.112 1.367.208 2.058.288 1.076.112 1.906 1.024 1.906 2.144v2.545c0 2.145-1.29 4.097-3.242 4.754-1.337.448-2.151 1.056-2.151 1.744 0 1.377 3.272 2.481 7.313 2.481s7.314-1.104 7.314-2.481c0-.688-.83-1.296-2.151-1.744-1.951-.657-3.242-2.625-3.242-4.754v-2.545c0-1.12.83-2.032 1.905-2.144.692-.08 1.383-.176 2.06-.288 1.075-.193 2.12.464 2.396 1.552l.015.032c.43 1.665-.123 3.473-1.46 4.465-.675.513-1.044 1.009-.937 1.441.246.928 2.643 1.056 5.378.288 2.735-.768 4.763-2.129 4.517-3.057-.107-.416-.66-.672-1.505-.752-1.644-.16-2.981-1.457-3.411-3.105-.277-1.089.307-2.193 1.321-2.593.645-.256 1.29-.528 1.92-.832.984-.464 2.152-.112 2.69.864l1.213 2.193c1.03 1.856.86 4.225-.522 5.81-.937 1.072-1.352 2.048-1.03 2.64.661 1.185 4.026.433 7.529-1.664 3.504-2.113 5.808-4.77 5.148-5.954-.323-.592-1.337-.704-2.705-.384-2.012.448-4.056-.576-5.085-2.433l-1.214-2.193c-.538-.976-.261-2.176.614-2.849.554-.432 1.107-.88 1.629-1.344.845-.736 2.059-.704 2.827.096l.031.032c1.168 1.216 1.567 3.073.876 4.626-.354.8-.415 1.424-.123 1.728.645.672 2.796-.464 4.809-2.545 1.997-2.08 3.104-4.321 2.443-5.009-.292-.304-.906-.24-1.659.128-1.491.72-3.273.304-4.441-.913l-.031-.032c-.768-.8-.783-2.08-.092-2.945.446-.56.876-1.12 1.291-1.696.645-.896 1.798-1.2 2.735-.64l2.105 1.264c1.782 1.072 2.766 3.217 2.335 5.298-.292 1.424-.199 2.481.369 2.817 1.137.688 3.703-1.713 5.716-5.362 2.028-3.649 2.735-7.154 1.598-7.843-.569-.336-1.491.096-2.535 1.073-1.522 1.44-3.796 1.616-5.578.544l-2.105-1.264c-.937-.56-1.275-1.777-.83-2.801.277-.656.554-1.329.799-2 .384-1.057 1.445-1.681 2.489-1.377 1.598.448 2.828 1.84 2.981 3.553.077.864.323 1.456.722 1.568.892.256 2.198-1.856 2.935-4.705.738-2.85.599-5.362-.276-5.602-.4-.112-.892.256-1.383.976-.953 1.393-2.704 1.969-4.287 1.52l-.031-.015c-1.045-.288-1.675-1.377-1.49-2.497.107-.704.2-1.424.276-2.145.108-1.12.984-1.984 2.059-1.984h2.443c2.059 0 3.934 1.344 4.564 3.377.43 1.392 1.014 2.24 1.674 2.24 1.322 0 2.382-3.409 2.382-7.618 0-4.21-1.045-7.634-2.351-7.634zm-7.774-19.127c.522-.304 1.674.785 2.596 2.433.922 1.649 1.245 3.233.722 3.553-.522.304-1.674-.784-2.596-2.432-.907-1.649-1.23-3.25-.722-3.554zm-14.505-15.38c1.583.96 2.627 2.16 2.336 2.704-.292.545-1.829.192-3.412-.752-1.582-.96-2.627-2.16-2.335-2.705.292-.544 1.828-.192 3.411.752zm-45.634 1.952c-1.582.96-3.103 1.297-3.41.752-.293-.544.752-1.744 2.335-2.705 1.582-.96 3.103-1.296 3.41-.752.293.528-.752 1.745-2.335 2.705zM40.434 57.81c-.922 1.648-2.074 2.736-2.597 2.432-.522-.304-.184-1.904.722-3.553.922-1.648 2.075-2.737 2.597-2.433.507.304.185 1.905-.722 3.554zm-7.052 26.664c-.6 0-1.076-1.552-1.076-3.457 0-1.905.476-3.457 1.076-3.457.599 0 1.075 1.552 1.075 3.457 0 1.905-.476 3.457-1.075 3.457zm7.774 23.304c-.522.304-1.675-.785-2.596-2.433-.922-1.649-1.245-3.233-.723-3.553.523-.304 1.675.784 2.597 2.432.907 1.649 1.23 3.233.722 3.554zm14.505 15.38c-1.583-.96-2.628-2.16-2.336-2.704.292-.545 1.829-.192 3.411.752 1.583.96 2.628 2.161 2.336 2.705-.308.528-1.829.192-3.411-.753zm45.633-1.952c1.583-.96 3.104-1.297 3.412-.752.291.544-.753 1.744-2.336 2.704-1.583.961-3.104 1.297-3.411.753-.292-.544.753-1.745 2.335-2.705zM75.697 33.481c0-.624 1.49-1.12 3.318-1.12 1.829 0 3.32.496 3.32 1.12 0 .624-1.491 1.12-3.32 1.12-1.828 0-3.319-.496-3.319-1.12zm5.792 15.285c3.088 0 5.593 1.632 5.593 3.633 0 2-2.504 3.633-5.593 3.633-3.088 0-5.593-1.632-5.593-3.633 0-2.017 2.49-3.633 5.593-3.633zm-7.006 14.5c2.95-.928 5.9.176 6.56 2.481.677 2.305-1.183 4.93-4.133 5.874-2.95.928-5.9-.176-6.56-2.48-.676-2.322 1.167-4.946 4.133-5.875zm-15.611-6.882c2.182-2.273 5.055-2.977 6.422-1.552 1.368 1.424.692 4.417-1.49 6.69-2.182 2.273-5.055 2.977-6.422 1.552-1.368-1.408-.692-4.401 1.49-6.69zm-7.33 27.881c-1.92 0-3.487-2.609-3.487-5.826 0-3.217 1.567-5.826 3.488-5.826 1.92 0 3.488 2.61 3.488 5.826 0 3.217-1.567 5.826-3.488 5.826zm10.25 19.286c-1.368 1.425-4.241.72-6.423-1.552-2.182-2.273-2.858-5.266-1.49-6.69 1.367-1.425 4.24-.72 6.422 1.552 2.182 2.273 2.858 5.266 1.49 6.69zm7.282-11.972c-2.166.865-4.809-.864-5.915-3.873-1.106-3.009-.261-6.146 1.905-7.01 2.167-.864 4.81.864 5.916 3.873 1.106 2.993.26 6.13-1.906 7.01zm13.26 36.972c0 .624-1.49 1.121-3.319 1.121-1.828 0-3.319-.497-3.319-1.121s1.49-1.12 3.32-1.12c1.828 0 3.318.496 3.318 1.12zm-5.792-15.285c-3.089 0-5.593-1.632-5.593-3.633 0-2 2.504-3.633 5.593-3.633 3.088 0 5.592 1.633 5.592 3.633 0 2.001-2.504 3.633-5.592 3.633zm9.05-15.172c-2.95.928-5.9-.177-6.561-2.481-.676-2.305 1.183-4.93 4.133-5.874 2.95-.928 5.9.176 6.56 2.48.661 2.321-1.182 4.946-4.133 5.875zm2.473-20.039c-1.106-3.009-.26-6.146 1.906-7.01 2.166-.865 4.809.864 5.915 3.873 1.106 3.009.261 6.146-1.905 7.01-2.151.865-4.81-.864-5.916-3.873zm11.094 27.577c-2.182 2.273-5.055 2.977-6.423 1.552-1.367-1.424-.691-4.417 1.49-6.69 2.182-2.272 5.056-2.977 6.423-1.552 1.368 1.424.692 4.417-1.49 6.69zm-1.445-40.477c-2.181-2.273-2.857-5.266-1.49-6.69 1.367-1.425 4.241-.72 6.423 1.552 2.181 2.273 2.857 5.266 1.49 6.69-1.352 1.425-4.225.737-6.422-1.552zm8.774 24.248c-1.921 0-3.488-2.61-3.488-5.826 0-3.217 1.567-5.826 3.488-5.826 1.92 0 3.488 2.609 3.488 5.826 0 3.217-1.568 5.826-3.488 5.826zm11.109 14.82c.922-1.648 2.074-2.736 2.596-2.432.523.304.185 1.904-.722 3.553-.922 1.648-2.074 2.737-2.596 2.433-.508-.321-.185-1.905.722-3.554zm7.052-19.75c-.599 0-1.075-1.552-1.075-3.457 0-1.905.476-3.457 1.075-3.457s1.076 1.552 1.076 3.457c0 1.905-.477 3.457-1.076 3.457z"/>
    </g>
    <defs>
        <linearGradient id="prefix__paint0_linear" x1="31.027" x2="127.135" y1="70.669" y2="70.669" gradientUnits="userSpaceOnUse">
            <stop stop-color="#5F378B"/>
            <stop offset="1" stop-color="#EC8427"/>
        </linearGradient>
        <filter id="prefix__filter0_f" width="158" height="162" x="0" y="0" color-interpolation-filters="sRGB" filterUnits="userSpaceOnUse">
            <feFlood flood-opacity="0" result="BackgroundImageFix"/>
            <feBlend in="SourceGraphic" in2="BackgroundImageFix" result="shape"/>
            <feGaussianBlur result="effect1_foregroundBlur" stdDeviation="15.5"/>
        </filter>
    </defs>
</svg>
