<svg xmlns="http://www.w3.org/2000/svg" xmlns:xlink="http://www.w3.org/1999/xlink" width="36" height="42" viewBox="0 0 36 42">
    <defs>
        <path id="prefix__a" d="M1073 548L1087 556 1087 572 1073 580 1059 572 1059 556z"/>
        <mask id="prefix__b" width="36" height="40" x="-4" y="-4" maskContentUnits="userSpaceOnUse" maskUnits="objectBoundingBox">
            <path fill="#fff" d="M1055 544H1091V584H1055z"/>
            <use xlink:href="#prefix__a"/>
        </mask>
    </defs>
    <use fill="none" fill-rule="evenodd" stroke="#884FC6" stroke-dasharray="1" stroke-linecap="round" stroke-width="8" mask="url(#prefix__b)" transform="translate(-1055 -543)" xlink:href="#prefix__a"/>
</svg>
