<?xml version="1.0" encoding="UTF-8"?>
<svg width="34px" height="40px" viewBox="0 0 34 40" version="1.1" xmlns="http://www.w3.org/2000/svg" xmlns:xlink="http://www.w3.org/1999/xlink">
    <!-- Generator: Sketch 64 (93537) - https://sketch.com -->
    <title>Group 7</title>
    <desc>Created with Sketch.</desc>
    <g id="Page-1" stroke="none" stroke-width="1" fill="none" fill-rule="evenodd">
        <g id="Awir_homepage_desktop" transform="translate(-874.000000, -134.000000)">
            <g id="Group-7" transform="translate(874.000000, 134.544747)">
                <path d="M17,2.45525332 L32,10.9552533 L32,27.9552533 L17,36.4552533 L2,27.9552533 L2,10.9552533 L17,2.45525332 Z" id="Polygon-Copy-6" fill="#5F378B"></path>
                <path d="M34,9.71428571 L17,3.41060513e-13 L0,9.71428571 L0,29.1962209 L17,38.9105066 L34,29.1962209 L34,9.71428571 Z M17,3.45525332 L31,11.4552533 L31,27.4552533 L17,35.4552533 L3,27.4552533 L3,11.4552533 L17,3.45525332 Z" id="Polygon-Copy-6" fill="#FFFFFF" fill-rule="nonzero"></path>
            </g>
        </g>
    </g>
</svg>