<svg id="Layer_1" data-name="Layer 1" xmlns="http://www.w3.org/2000/svg" viewBox="0 0 255.43 255.44">
  <defs>
    <style>
      .cls-1 {
        fill: #3b3b3e;
      }
    </style>
  </defs>
  <title>brand-film-festival-logo</title>
  <g>
    <g id="border">
      <path class="cls-1" d="M255.43,255.44H0V0H255.43ZM11.44,244H244V11.44H11.44Z"/>
    </g>
    <path id="Festival" class="cls-1" d="M208.43,133.21h23.46V126H216.83v-25h-8.41Zm-36,0H181l2-5.79h11.26l2,5.79h8.77L193,100.93h-8.54Zm16.27-23.33h.09l3.57,11.3H185Zm-12.2-9H167.7l-6.33,24h-.09l-6.33-24h-8.77l10.17,32.28H166Zm-41.59,32.28h8.41V100.93h-8.41Zm-3.71-32.28H103.51v7.23h9.63v25h8.41v-25h9.63ZM74,122.36c0,8.27,6.6,11.53,14,11.53,7.1,0,14.06-2.62,14.06-10.8,0-5.83-4.7-8-9.36-9.31s-9.36-1.76-9.36-4.25c0-2.12,2.26-2.76,4.07-2.76,2.58,0,5.33.95,5.2,3.89h8.41c0-7.28-6.51-10.4-12.93-10.4C82.08,100.26,75,103,75,110.07c0,5.92,4.84,8,9.45,9.31s9.27,1.85,9.27,4.7c0,2.4-2.62,3.3-5.15,3.3-3.57,0-5.92-1.22-6.1-5ZM45.83,133.21H72V126H54.24v-6.15H70.06v-6.51H54.24v-5.65H71.55v-6.74H45.83Zm-26.71,0h8.41V120.78H40.81v-6.51H27.52v-6.6H42.89v-6.74H19.12Z"/>
    <path id="Film" class="cls-1" d="M85,92.86h7.91V68.36H93l6.78,24.5h6.42L113,68.36h.09v24.5H121V60.59H108.62L103.06,82.1H103L97.41,60.59H85Zm-26.31,0H82.17V85.63H67.12v-25H58.71Zm-12.43,0h8.41V60.59H46.28Zm-27.17,0h8.41V80.43H40.81V73.92H27.52v-6.6H42.89V60.59H19.12Z"/>
    <path id="Brand" class="cls-1" d="M156.31,27.47h4c5.74,0,8.91,2.85,8.91,8.72,0,6.46-2.53,9-8.91,9.09h-4Zm-8.41,25h13.88c9.81,0,15.82-5.7,15.82-16.27,0-10-5.92-16-15.82-16H147.9Zm-31.78,0H124V32.4h.09l11.21,20.12H144V20.24h-7.91V40.13H136L124.75,20.24h-8.63Zm-35.48,0h8.63l2-5.79h11.26l2,5.79h8.77L101.25,20.24H92.71ZM96.91,29.19H97l3.57,11.3H93.25ZM58.35,27H65c2.35,0,4.25,1.08,4.25,3.48s-1.36,3.8-3.89,3.8H58.35ZM49.94,52.51h8.41V40.76h6.37c3.93,0,4.48,3.35,4.7,6.6.09.9.23,4.07.95,5.15h8.32c-1.13-1.18-1.27-5.92-1.36-7.28-.27-3.07-1.27-6.92-4.7-7.73v-.09C76,36.1,77.7,32.8,77.7,29.32c0-6.51-5.61-9.09-11.3-9.09H49.94ZM27.52,26.75H34c1.76,0,3.44.77,3.44,3.12s-2,3.07-3.44,3.07H27.52ZM19.12,52.51H34.62c6.92,0,12.57-2.35,12.57-10a7.66,7.66,0,0,0-5.56-7.64,7.26,7.26,0,0,0,4.25-6.51c0-6.74-6.1-8.18-11.66-8.09H19.12Zm8.41-14.15h6.74c2.53,0,4.52.95,4.52,3.8,0,2.67-1.85,3.62-4.52,3.62H27.52Z"/>
    <g id="Camera_Icon" data-name="Camera Icon">
      <circle class="cls-1" cx="27.92" cy="215.78" r="3.1"/>
      <path class="cls-1" d="M38.27,224.32a.38.38,0,0,1,0-.21.36.36,0,0,1,0-.06v-1.42a.9.9,0,0,0-.9-.9H27.27a.9.9,0,0,0-.9.9v6.46a.9.9,0,0,0,.9.9H37.34a.87.87,0,0,0,.9-.84v-1.23a.34.34,0,0,1,0-.06.37.37,0,0,1,0-.2.39.39,0,0,1,.49-.24l4.65,1.63v-6.37l-4.63,1.85A.39.39,0,0,1,38.27,224.32Z"/>
      <circle class="cls-1" cx="36.96" cy="215.78" r="3.1"/>
      <path class="cls-1" d="M33.91,207.48a14.76,14.76,0,1,0,14.76,14.76A14.76,14.76,0,0,0,33.91,207.48Zm3,4.43a3.87,3.87,0,1,1-3.87,3.87A3.88,3.88,0,0,1,37,211.91ZM24,215.78a3.87,3.87,0,1,1,3.87,3.87A3.88,3.88,0,0,1,24,215.78ZM44.19,229.6a.39.39,0,0,1-.16.32.39.39,0,0,1-.22.07l-.13,0L39,228.34v.81a1.65,1.65,0,0,1-1.68,1.61H27.27a1.68,1.68,0,0,1-1.68-1.68v-6.46a1.68,1.68,0,0,1,1.68-1.68H37.34A1.68,1.68,0,0,1,39,222.63v1l4.63-1.85a.39.39,0,0,1,.53.36Z"/>
    </g>
    <g id="Mobile_Icon" data-name="Mobile Icon">
      <polygon class="cls-1" points="104.75 219.99 104.75 224.5 108.18 222.24 104.75 219.99"/>
      <path class="cls-1" d="M99.65,229.45h12.89V215.22H99.65Zm4.3-10.21a.4.4,0,0,1,.4-.4.4.4,0,0,1,.3.14l.1,0,4.38,2.88h0l.06.05.06.06h0v0a.41.41,0,0,1,0,.11.38.38,0,0,1,0,.08.38.38,0,0,1,0,.07.4.4,0,0,1-.06.14h0a.39.39,0,0,1-.11.12l-4.38,2.88a.4.4,0,0,1-.22.07h0a.4.4,0,0,1-.16,0,.4.4,0,0,1-.4-.4Z"/>
      <path class="cls-1" d="M96.43,217v10.74a1.75,1.75,0,0,0,1.75,1.75h.67V215.22h-.67A1.75,1.75,0,0,0,96.43,217Z"/>
      <path class="cls-1" d="M114,215.22h-.67v14.24H114a1.75,1.75,0,0,0,1.75-1.75V217A1.75,1.75,0,0,0,114,215.22Z"/>
      <path class="cls-1" d="M105.91,207.48a14.76,14.76,0,1,0,14.76,14.76A14.76,14.76,0,0,0,105.91,207.48ZM114,230.26H98.17a2.55,2.55,0,0,1-2.55-2.55V217a2.55,2.55,0,0,1,2.55-2.55H114a2.55,2.55,0,0,1,2.55,2.55v10.74A2.55,2.55,0,0,1,114,230.26Z"/>
    </g>
    <g id="Slate_Icon" data-name="Slate Icon">
      <polygon class="cls-1" points="72.37 213.12 69.76 214.63 69.76 214.63 69.12 217.02 71.73 215.51 72.37 213.12"/>
      <polygon class="cls-1" points="63.69 222.83 66.95 222.83 65.2 221.08 65.2 221.08 63.69 221.08 63.69 222.83"/>
      <polygon class="cls-1" points="74.56 211.85 73.17 212.66 73.17 212.67 72.53 215.05 75.44 213.37 74.56 211.85"/>
      <polygon class="cls-1" points="68.96 215.09 66.35 216.59 66.35 216.6 65.72 218.98 68.32 217.48 68.96 215.09"/>
      <polygon class="cls-1" points="74.81 222.83 73.07 221.08 73.07 221.08 70.06 221.08 71.81 222.83 74.81 222.83"/>
      <polygon class="cls-1" points="70.88 222.83 69.14 221.08 69.13 221.08 66.13 221.08 67.87 222.83 70.88 222.83"/>
      <polygon class="cls-1" points="75.74 222.83 77.45 222.83 77.45 221.08 73.99 221.08 75.74 222.83"/>
      <path class="cls-1" d="M63.69,229.93a.55.55,0,0,0,.55.55H76.91a.55.55,0,0,0,.55-.55v-6.45H63.69Zm2.4-3.82a.33.33,0,0,1,0-.66h9a.33.33,0,0,1,0,.66H70.9v1.75h4.15a.33.33,0,0,1,0,.66h-9a.33.33,0,0,1,0-.66h4.15v-1.75Z"/>
      <path class="cls-1" d="M70.09,207.48a14.76,14.76,0,1,0,14.76,14.76A14.76,14.76,0,0,0,70.09,207.48Zm8,22.45a1.2,1.2,0,0,1-1.2,1.2H64.23a1.2,1.2,0,0,1-1.2-1.2v-6.67a.31.31,0,0,1,0-.06.31.31,0,0,1,0-.05v-2.43l-1.13-1.95a.33.33,0,0,1,.12-.45l12.49-7.21a.33.33,0,0,1,.45.12l1.2,2.08a.33.33,0,0,1-.12.45l-11.52,6.65H77.78a.33.33,0,0,1,.33.33v2.4a.31.31,0,0,1,0,.05.31.31,0,0,1,0,.06Z"/>
      <polygon class="cls-1" points="65.55 217.06 62.64 218.74 63.52 220.25 64.91 219.45 65.55 217.06"/>
    </g>
    <g id="New_York" data-name="New York">
      <path class="cls-1" d="M19.18,138.83h1.34l7.36,10.68h0V138.83h1.2v12.63H27.78l-7.36-10.68h0v10.68h-1.2Z"/>
      <path class="cls-1" d="M32.71,138.83h8.72v1H33.91v4.56h7v1h-7v5h7.6v1H32.71Z"/>
      <path class="cls-1" d="M44.4,138.83h1.29l2.86,11.05h0l3.08-11.05h1.5l3.09,11.05h0l2.88-11.05h1.2L56.9,151.45H55.63l-3.2-11.3h0l-3.18,11.3H47.9Z"/>
      <path class="cls-1" d="M75.45,146.25l-5-7.43h1.43l4.16,6.4,4.14-6.4h1.43l-5,7.43v5.2h-1.2Z"/>
      <path class="cls-1" d="M88.74,138.56c4,0,5.94,3.13,5.94,6.58s-2,6.58-5.94,6.58-6-3.13-6-6.58S84.76,138.56,88.74,138.56Zm0,12.13c3.32,0,4.74-2.79,4.74-5.55s-1.41-5.55-4.74-5.55S84,142.38,84,145.14,85.39,150.69,88.74,150.69Z"/>
      <path class="cls-1" d="M98,138.83h5.78c2.09,0,3.84,1,3.84,3.29a3,3,0,0,1-2.46,3.22v0c1.64.21,2.12,1.34,2.21,2.85.05.87.05,2.6.58,3.24H106.6a5,5,0,0,1-.34-2c-.11-1.77-.25-3.73-2.53-3.64H99.17v5.61H98Zm1.2,6h4.49a2.51,2.51,0,0,0,2.72-2.46c0-1.54-.92-2.51-2.72-2.51H99.17Z"/>
      <path class="cls-1" d="M111.53,138.83h1.2v6.79l7.34-6.79h1.63L116.06,144l5.91,7.41h-1.56l-5.25-6.58-2.42,2.25v4.33h-1.2Z"/>
    </g>
  </g>
</svg>
