<svg width="201" height="200" viewBox="0 0 201 200" fill="none" xmlns="http://www.w3.org/2000/svg">
<path fill-rule="evenodd" clip-rule="evenodd" d="M169.195 26.875V95.5762L189.771 75H175.445V68.75H200.445V200H0.445312V68.75H25.4453V75H11.118L31.6953 95.5773V0H50.4453H125.445H142.32L169.195 26.875ZM125.445 6.25H137.945V31.25H162.945V101.826L132.699 132.072L137.119 136.492L194.195 79.4149V190.498L100.445 117.813L6.69531 190.498V79.4161L63.9912 136.712L68.4106 132.293L37.9453 101.827V6.25H50.4453V37.5H125.445V6.25ZM119.195 6.25H56.6953V31.25H119.195V6.25ZM158.57 25L144.195 10.625V25H158.57ZM100.445 125.938L188.169 193.75H12.7219L100.445 125.938ZM103.57 181.25H97.3203V187.5H103.57V181.25ZM109.82 181.25H116.07V187.5H109.82V181.25ZM84.8203 181.25V187.5H91.0703V181.25H84.8203ZM69.1953 12.5H62.9453V18.75H69.1953V12.5ZM75.4453 12.5H81.6953V18.75H75.4453V12.5ZM94.1953 12.5H87.9453V18.75H94.1953V12.5ZM50.4453 43.75H150.445V50H50.4453V43.75ZM150.445 56.25H50.4453V62.5H150.445V56.25ZM50.4453 68.75H150.445V75H50.4453V68.75ZM150.445 81.25H50.4453V87.5H150.445V81.25ZM50.4453 93.75H150.445V100H50.4453V93.75Z" fill="url(#paint0_linear)"/>
<defs>
<linearGradient id="paint0_linear" x1="0.502195" y1="79.339" x2="200.727" y2="79.339" gradientUnits="userSpaceOnUse">
<stop stop-color="#5F378B"/>
<stop offset="1" stop-color="#EC8427"/>
</linearGradient>
</defs>
</svg>
