<svg xmlns="http://www.w3.org/2000/svg" width="24" height="19" viewBox="0 0 24 19">
    <path fill="#FFF" fill-rule="evenodd" d="M2.304 5.813C1.75 5.438 1.227 4.922.737 4.266.246 3.61 0 3 0 2.438 0 1.74.185 1.16.555.697.926.232 1.455 0 2.143 0h19.714c.58 0 1.083.21 1.506.63.424.419.637.924.637 1.513 0 .706-.22 1.379-.657 2.022a6.356 6.356 0 0 1-1.633 1.647l-6.268 4.353-.57.409c-.29.21-.53.38-.722.509-.193.13-.425.274-.697.435-.272.16-.529.281-.77.362-.241.08-.464.12-.67.12h-.026c-.206 0-.429-.04-.67-.12-.241-.08-.498-.201-.77-.362a13.5 13.5 0 0 1-.697-.435c-.192-.13-.433-.3-.723-.51-.29-.209-.48-.345-.57-.408-.812-.57-1.98-1.385-3.508-2.444a615.937 615.937 0 0 1-2.745-1.908zM22.66 7.186c.51-.355.956-.75 1.34-1.186v10.82c0 .6-.21 1.113-.63 1.54-.42.427-.924.64-1.513.64H2.143c-.59 0-1.094-.213-1.514-.64C.21 17.933 0 17.42 0 16.82V6c.392.445.843.84 1.352 1.186 3.233 2.234 5.451 3.801 6.657 4.7.509.383.922.68 1.238.893.317.214.74.432 1.266.654.527.223 1.018.335 1.474.335h.026c.456 0 .946-.112 1.474-.335.526-.222.949-.44 1.265-.654.317-.213.73-.51 1.24-.892 1.517-1.118 3.74-2.685 6.668-4.701z"/>
</svg>
