<?xml version="1.0" standalone="no"?>
<!DOCTYPE svg PUBLIC "-//W3C//DTD SVG 1.1//EN" "http://www.w3.org/Graphics/SVG/1.1/DTD/svg11.dtd" >
<svg>
<metadata>
Created by FontForge 20090622 at Mon Aug 28 15:02:08 2017
 By deploy user
Copyright (c) 2011-2012, Jonathan Pinhorn (jonpinhorn.typedesign@gmail.com), with Reserved Font Names 'Karla'
</metadata>
<defs>
<font id="Karla-Regular" horiz-adv-x="280" >
  <font-face 
    font-family="Karla"
    font-weight="400"
    font-stretch="normal"
    units-per-em="1000"
    panose-1="0 0 0 0 0 0 0 0 0 0"
    ascent="800"
    descent="-200"
    x-height="478"
    cap-height="629"
    bbox="-86 -246 894 879"
    underline-thickness="50"
    underline-position="-50"
    unicode-range="U+0020-U+2212"
  />
<missing-glyph horiz-adv-x="553" 
 />
    <glyph glyph-name=".notdef" horiz-adv-x="553" 
 />
    <glyph glyph-name=".null" horiz-adv-x="0" 
 />
    <glyph glyph-name="nonmarkingreturn" horiz-adv-x="553" 
 />
    <glyph glyph-name="space" unicode=" " horiz-adv-x="238" 
 />
    <glyph glyph-name="space" unicode="&#xa0;" horiz-adv-x="238" 
 />
    <glyph glyph-name="exclam" unicode="!" horiz-adv-x="278" 
d="M99 627h83l-9 -451h-64zM98.5 7.5q-16.5 16.5 -16.5 40t16.5 40t42 16.5t43 -16.5t17.5 -40t-17.5 -40t-43 -16.5t-42 16.5z" />
    <glyph glyph-name="quotedbl" unicode="&#x22;" horiz-adv-x="306" 
d="M110 681l-11 -220h-60l-11 220h82zM278 681l-11 -220h-60l-11 220h82z" />
    <glyph glyph-name="numbersign" unicode="#" horiz-adv-x="627" 
d="M380 170h-154l-14 -139h-74l14 139h-99l5 54h100l19 178h-101l6 53h100l15 138h74l-15 -138h154l15 138h73l-15 -138h103l-6 -53h-102l-19 -178h103l-6 -54h-103l-14 -139h-74zM232 224h153l19 178h-153z" />
    <glyph glyph-name="dollar" unicode="$" horiz-adv-x="632" 
d="M417 330q69 -23 107.5 -61.5t38.5 -105t-57 -117t-159 -56.5v-81h-62v82q-95 8 -155.5 59.5t-60.5 138.5h77q0 -113 139 -126v235l-32 12q-83 26 -125.5 62t-42.5 103t50.5 111.5t149.5 51.5v75h62v-76q87 -7 134 -50t58 -111h-78q-17 80 -114 92v-215zM475 167
q0 74 -92 103l-36 12v-220q63 5 95.5 36t32.5 69zM199 536q-29 -27 -29 -63.5t20 -57t65 -34.5l30 -11v199q-57 -6 -86 -33z" />
    <glyph glyph-name="percent" unicode="%" horiz-adv-x="726" 
d="M279 602q38 -38 38 -106t-37.5 -105.5t-91.5 -37.5t-90.5 38t-36.5 105t37 105.5t90 38.5t91 -38zM235 565q-18 22 -47 22t-47 -22t-18 -69t18 -68t47 -21t47 21t18 68t-18 69zM534 629h82l-423 -629h-81zM538 276q54 0 91.5 -37.5t37.5 -106t-37.5 -106t-91.5 -37.5
t-90.5 38t-36.5 105.5t36.5 105.5t90.5 38zM538 223q-29 0 -47 -22t-18 -69t18 -68t47 -21t47 21t18 68t-18 69t-47 22z" />
    <glyph glyph-name="ampersand" unicode="&#x26;" horiz-adv-x="916" 
d="M725 350q-45 -137 -115 -222l43 -37q20 -17 35.5 -25t40 -8t44 18.5t22.5 63.5h74q-4 -72 -37.5 -111.5t-97.5 -39.5q-39 0 -72 16t-72 51l-26 22q-100 -89 -228 -89q-105 0 -176 52.5t-71 126.5t47.5 111.5t139.5 52.5l-14 13q-77 67 -77 147q0 63 52.5 105t139 42
t138 -42t51.5 -101.5t-39 -102.5t-127 -81l158 -139q68 82 112 207zM211.5 251q-36.5 -27 -36.5 -75t41.5 -82.5t127.5 -34.5t167 66l-186 163q-77 -10 -113.5 -37zM480 488q0 36 -27.5 60t-77 24t-77 -27.5t-27.5 -59.5t13 -57t43 -51l27 -25q104 48 120 100q6 17 6 36z
" />
    <glyph glyph-name="quotesingle" unicode="'" horiz-adv-x="136" 
d="M109 677l-11 -220h-60l-11 220h82z" />
    <glyph glyph-name="parenleft" unicode="(" horiz-adv-x="356" 
d="M155 307q0 -205 173 -380l-57 -40q-98 89 -148 197t-50 223.5t50 223t148 197.5l57 -41q-173 -175 -173 -380z" />
    <glyph glyph-name="parenright" unicode=")" horiz-adv-x="356" 
d="M201 307q0 205 -173 380l57 41q98 -90 148 -197.5t50 -223t-50 -223.5t-148 -197l-57 40q173 175 173 380z" />
    <glyph glyph-name="asterisk" unicode="*" horiz-adv-x="412" 
d="M173 516l-117 40l24 54l106 -54l-10 128h62l-10 -128l106 54l24 -54l-116 -40l90 -89l-44 -39l-80 104l-80 -104l-45 39z" />
    <glyph glyph-name="plus" unicode="+" horiz-adv-x="527" 
d="M303 491v-212h206v-67h-206v-212h-79v212h-206v67h206v212h79z" />
    <glyph glyph-name="comma" unicode="," horiz-adv-x="210" 
d="M67 10q-15 13 -15 35t15.5 37t44 15t47.5 -22.5t19 -56.5t-22 -69.5t-67 -57.5l-59 29q62 30 75 75q-23 2 -38 15z" />
    <glyph glyph-name="hyphen" unicode="-" horiz-adv-x="349" 
d="M38 325h272v-68h-272v68z" />
    <glyph glyph-name="period" unicode="." horiz-adv-x="179" 
d="M46.5 7.5q-16.5 16.5 -16.5 40t16.5 40t42 16.5t42.5 -16.5t17 -40t-17 -40t-42.5 -16.5t-42 16.5z" />
    <glyph glyph-name="slash" unicode="/" horiz-adv-x="432" 
d="M308 731h80l-252 -804h-79z" />
    <glyph glyph-name="zero" unicode="0" horiz-adv-x="594" 
d="M478 556q66 -84 66 -241.5t-66 -241.5t-180 -84t-180.5 83t-66.5 242.5t66.5 242.5t180.5 83t180 -84zM420 502.5q-42 65.5 -122.5 65.5t-122.5 -65.5t-42 -188t42 -188t122.5 -65.5t122.5 65.5t42 188t-42 188z" />
    <glyph glyph-name="one" unicode="1" horiz-adv-x="331" 
d="M49 580q67 9 117 51h64v-631h-78v537q-50 -32 -103 -35v78z" />
    <glyph glyph-name="two" unicode="2" horiz-adv-x="580" 
d="M143 73h365v-73h-444v93q0 111 84 163q27 17 60 30l124 50q96 38 96 125q0 48 -33 78.5t-92.5 30.5t-97 -25t-43.5 -75h-87q5 82 66 126t156.5 44t155.5 -52t60 -128.5t-39.5 -121.5t-108.5 -72l-127 -51q-48 -20 -71.5 -45.5t-23.5 -66.5v-30z" />
    <glyph glyph-name="three" unicode="3" horiz-adv-x="591" 
d="M505 468q0 -100 -110 -139q60 -17 97 -56t37 -100q0 -83 -63 -133.5t-166 -50.5t-175.5 53.5t-72.5 150.5h82q2 -64 47.5 -98t115.5 -34t108.5 33.5t38.5 83t-37 81t-120 31.5h-72v63h49q72 0 114 28.5t42 76.5t-34 79t-90 31t-93.5 -19.5t-50.5 -72.5h-82
q11 83 69 123.5t149.5 40.5t154 -48.5t62.5 -123.5z" />
    <glyph glyph-name="four" unicode="4" horiz-adv-x="559" 
d="M428 638v-418h109v-68h-109v-152h-77v152h-325v61l329 425h73zM120 213h233v300z" />
    <glyph glyph-name="five" unicode="5" horiz-adv-x="565" 
d="M427 204q0 119 -155 119h-169l27 306h349v-72h-273l-17 -181q52 9 99 9q103 0 162 -45.5t59 -137.5t-62 -152.5t-160 -60.5t-160 49.5t-62 136.5h79q0 -82 84 -107q26 -7 57 -7q64 0 103 40.5t39 102.5z" />
    <glyph glyph-name="six" unicode="6" horiz-adv-x="573" 
d="M425 470q-17 98 -107 98t-138.5 -74t-48.5 -202q0 -53 5 -88q6 92 56.5 133.5t129.5 41.5t136 -55.5t57 -142t-59 -140t-155 -53.5q-112 0 -181 90t-69 236.5t70 236t191 89.5q84 0 137 -47t61 -123h-85zM207.5 273.5q-37.5 -35.5 -37.5 -90.5t37 -88.5t94 -33.5t94.5 33
t37.5 91t-37.5 91t-94 33t-94 -35.5z" />
    <glyph glyph-name="seven" unicode="7" horiz-adv-x="470" 
d="M452 629v-73l-288 -556h-106l302 553h-336v76h428z" />
    <glyph glyph-name="eight" unicode="8" horiz-adv-x="615" 
d="M201 318q-125 57 -125 155q0 75 62 121t164.5 46t168.5 -49t66 -126q0 -52 -34.5 -93t-101.5 -51l17 -6q69 -26 106 -61.5t37 -96.5q0 -76 -67.5 -122t-182 -46t-185.5 51t-71 128q0 62 40.5 101t105.5 49zM276 289q-63 -7 -101 -39.5t-38 -80.5t48 -78t125.5 -30t123 26
t45.5 63t-24 59.5t-66 37.5zM159 463q0 -27 22 -46.5t63 -35.5l73 -28q60 2 99 31.5t39 77t-41 77t-106 29.5t-107 -28.5t-42 -76.5z" />
    <glyph glyph-name="nine" unicode="9" horiz-adv-x="581" 
d="M282 640q51 0 97 -22t79 -63q72 -88 72 -229q0 -245 -136 -314q-47 -23 -102 -23q-103 0 -163 56t-60 141h83q2 -57 36 -91t86 -34t84 19q91 57 91 257q0 41 -5 74q-10 -81 -58.5 -121t-127 -40t-135.5 55.5t-57 141.5q0 87 59 140t157 53zM279 567q-57 0 -94 -33
t-37 -91t37.5 -91t94 -33t94 35.5t37.5 90.5t-37.5 88.5t-94.5 33.5z" />
    <glyph glyph-name="colon" unicode=":" horiz-adv-x="231" 
d="M72.5 39.5q-16.5 16.5 -16.5 40t16.5 40t42 16.5t42.5 -16.5t17 -40t-17 -40t-42.5 -16.5t-42 16.5zM72.5 345.5q-16.5 16.5 -16.5 40t16.5 40t42 16.5t42.5 -16.5t17 -40t-17 -40t-42.5 -16.5t-42 16.5z" />
    <glyph glyph-name="semicolon" unicode=";" horiz-adv-x="262" 
d="M94 10q-15 13 -15 35t15.5 37t44 15t47.5 -22.5t19 -56.5t-22 -69.5t-67 -57.5l-59 29q62 30 75 75q-23 2 -38 15zM98.5 345.5q-16.5 16.5 -16.5 40t16.5 40t42 16.5t42.5 -16.5t17 -40t-17 -40t-42.5 -16.5t-42 16.5z" />
    <glyph glyph-name="less" unicode="&#x3c;" horiz-adv-x="454" 
d="M408 512l-288 -207l288 -204l-52 -61l-316 231v69l316 232z" />
    <glyph glyph-name="equal" unicode="=" horiz-adv-x="488" 
d="M409 185v-68h-330v68h330zM409 377v-69h-330v69h330z" />
    <glyph glyph-name="greater" unicode="&#x3e;" horiz-adv-x="454" 
d="M98 572l316 -232v-69l-316 -231l-51 61l286 204l-286 207z" />
    <glyph glyph-name="question" unicode="?" horiz-adv-x="499" 
d="M248 568q-117 0 -134 -92h-84q7 74 61 119t151.5 45t154 -48t56.5 -117q0 -52 -26 -86.5t-84 -66.5q-25 -14 -42 -25t-27 -25q-19 -25 -19 -72v-39h-78v45q0 63 21 96.5t76 63.5t74 52.5t19 60.5t-31.5 63.5t-87.5 25.5zM217 102q26 0 43 -17t17 -40.5t-17 -39.5t-43 -16
t-42 16t-16 39.5t16 40.5t42 17z" />
    <glyph glyph-name="at" unicode="@" horiz-adv-x="940" 
d="M575 289q0 84 -59 84t-106 -48.5t-47 -122.5q0 -53 27.5 -82t68.5 -29t67 23.5t49 68.5v106zM641 138q0 -51 39 -51q20 0 43.5 13.5t42.5 39.5q46 61 46 156q0 119 -81 196t-220 77q-82 0 -149 -28t-114 -75q-100 -100 -100 -249t106 -241.5t291 -92.5v-64
q-213 0 -347 115q-63 54 -97 128.5t-34 163.5t33 165t92 131.5t140.5 86.5t172.5 31t162 -27t121 -73.5t78 -109.5t28 -130q0 -122 -64.5 -197t-150.5 -75q-43 0 -69 18t-31 52l-3 16q-18 -38 -48 -62t-70 -24q-74 0 -121.5 49t-47.5 124q0 99 66 166.5t157 67.5
q60 0 94.5 -36t34.5 -109v-152z" />
    <glyph glyph-name="A" unicode="A" horiz-adv-x="575" 
d="M242 629h96l211 -629h-82l-54 160h-250l-54 -160h-83zM184 222h209l-104 310z" />
    <glyph glyph-name="B" unicode="B" horiz-adv-x="622" 
d="M101 629h235q99 0 152.5 -47t53.5 -118q0 -54 -29.5 -94t-89.5 -54q59 -10 94.5 -51t35.5 -93q0 -116 -113 -157q-42 -15 -103 -15h-236v629zM335 69q72 0 103 29t31 77t-34 76.5t-100 28.5h-155v-211h155zM180 348h154q58 0 92.5 28.5t34.5 78.5t-33.5 78t-93.5 28h-154
v-213z" />
    <glyph glyph-name="C" unicode="C" horiz-adv-x="613" 
d="M319 640q101 0 162.5 -50.5t84.5 -131.5l-85 -17q-20 59 -62.5 93.5t-99.5 34.5q-79 0 -131 -66t-52 -183.5t46.5 -188.5t136.5 -71q75 0 118.5 39.5t43.5 104.5h85q0 -99 -67.5 -157t-185 -58t-190 90t-72.5 241t75 235.5t193 84.5z" />
    <glyph glyph-name="D" unicode="D" horiz-adv-x="661" 
d="M285 629q142 0 227.5 -85.5t85.5 -229t-85.5 -229t-227.5 -85.5h-185v629h185zM179 69h106q105 0 167 69.5t62 176.5t-62.5 175.5t-166.5 68.5h-106v-490z" />
    <glyph glyph-name="E" unicode="E" horiz-adv-x="562" 
d="M100 629h387v-68h-308v-211h290v-67h-290v-214h308v-69h-387v629z" />
    <glyph glyph-name="F" unicode="F" horiz-adv-x="524" 
d="M101 629h382v-68h-303v-209h282v-68h-282v-284h-79v629z" />
    <glyph glyph-name="G" unicode="G" horiz-adv-x="645" 
d="M490 108q-42 -119 -163 -119t-198.5 88t-77.5 237t84.5 237t210.5 88q74 0 129.5 -30t95.5 -96l-76 -26q-65 81 -152 81t-147.5 -71t-60.5 -184.5t52 -182.5t140 -69q72 0 116 48t44 142v2l-158 6v52h235v-311h-64z" />
    <glyph glyph-name="H" unicode="H" horiz-adv-x="669" 
d="M180 629v-277h309v277h79v-629h-79v284h-309v-284h-79v629h79z" />
    <glyph glyph-name="I" unicode="I" 
d="M101 629h79v-629h-79v629z" />
    <glyph glyph-name="J" unicode="J" horiz-adv-x="404" 
d="M277.5 34q-46.5 -45 -118.5 -45t-151 42v82q70 -48 131.5 -48t83.5 30t22 87v447h79v-447q0 -103 -46.5 -148z" />
    <glyph glyph-name="K" unicode="K" horiz-adv-x="609" 
d="M181 629v-291l281 291h109l-275 -283l292 -346h-102l-243 291l-62 -64v-227h-80v629h80z" />
    <glyph glyph-name="L" unicode="L" horiz-adv-x="468" 
d="M180 69h280v-69h-359v629h79v-560z" />
    <glyph glyph-name="M" unicode="M" horiz-adv-x="848" 
d="M214 629l212 -426l210 426h111v-629h-79v517l-216 -438h-53l-219 445v-524h-79v629h113z" />
    <glyph glyph-name="N" unicode="N" horiz-adv-x="685" 
d="M193 629l312 -505v505h79v-629h-88l-317 512v-512h-80v629h94z" />
    <glyph glyph-name="O" unicode="O" horiz-adv-x="646" 
d="M323 640q122 0 197.5 -83.5t75.5 -243t-75 -242t-198 -82.5t-197.5 83.5t-74.5 241.5q0 159 74.5 242.5t197.5 83.5zM323 569q-88 0 -139 -66t-51 -190t51 -188t139 -64t139.5 64t51.5 188t-51.5 190t-139.5 66z" />
    <glyph glyph-name="P" unicode="P" horiz-adv-x="554" 
d="M460.5 576.5q54.5 -52.5 54.5 -141.5t-54.5 -140.5t-158.5 -51.5h-124v-243h-79v629h203q104 0 158.5 -52.5zM302 311q65 0 98.5 33t33.5 90.5t-33.5 92t-98.5 34.5h-124v-250h124z" />
    <glyph glyph-name="Q" unicode="Q" horiz-adv-x="652" 
d="M596 -148q-40 -19 -84 -19q-85 0 -146 89l-47 67q-121 2 -194.5 85t-73.5 241t74.5 241.5t197.5 83.5q122 0 197.5 -83.5t75.5 -242.5q0 -132 -53 -212.5t-144 -103.5l31 -44q29 -39 69 -41q43 0 97 25v-86zM323 569q-88 0 -139 -66t-51 -190t51 -188t139 -64t139.5 64
t51.5 188t-51.5 190t-139.5 66z" />
    <glyph glyph-name="R" unicode="R" horiz-adv-x="613" 
d="M497.5 323q-41.5 -48 -122.5 -62l180 -261h-102l-163 257h-110v-257h-79v629h219q106 0 162.5 -51t56.5 -129t-41.5 -126zM314 312q71 0 107.5 34.5t36.5 91t-35.5 90t-102.5 33.5h-140v-249h134z" />
    <glyph glyph-name="S" unicode="S" horiz-adv-x="605" 
d="M436 476q-17 92 -135 92q-63 0 -97 -27.5t-34 -66t21 -58.5t68 -35l131 -45q67 -23 106.5 -63t39.5 -112.5t-62 -122t-166 -49.5t-170.5 52.5t-68.5 147.5h77q0 -62 43.5 -95t112 -33t108.5 30.5t40 72t-24.5 65.5t-72.5 40l-111 41q-78 26 -118 62t-40 105.5t56 116
t157 46.5t154.5 -44.5t61.5 -119.5h-77z" />
    <glyph glyph-name="T" unicode="T" horiz-adv-x="501" 
d="M6 629h489v-68h-205v-561h-79v561h-205v68z" />
    <glyph glyph-name="U" unicode="U" horiz-adv-x="654" 
d="M166 629v-402q0 -88 44 -127t116 -39t116 39t44 127v402h79v-402q0 -118 -65 -178t-174.5 -60t-174 60t-64.5 178v402h79z" />
    <glyph glyph-name="V" unicode="V" horiz-adv-x="563" 
d="M101 629l180 -529l181 529h83l-223 -629h-82l-222 629h83z" />
    <glyph glyph-name="W" unicode="W" horiz-adv-x="895" 
d="M102 629l153 -523l155 458h53l154 -458l176 523h87l-222 -629h-83l-137 403l-142 -403h-83l-199 629h88z" />
    <glyph glyph-name="X" unicode="X" horiz-adv-x="642" 
d="M593 0h-98l-182 251l-169 -251h-96l222 312l-223 317h95l180 -257l166 257h95l-217 -316z" />
    <glyph glyph-name="Y" unicode="Y" horiz-adv-x="549" 
d="M104 629l169 -289l173 289h93l-226 -371v-258h-80v258l-223 371h94z" />
    <glyph glyph-name="Z" unicode="Z" horiz-adv-x="592" 
d="M73 71l363 483l-363 3v72h462v-71l-363 -483l363 -3v-72h-462v71z" />
    <glyph glyph-name="bracketleft" unicode="[" horiz-adv-x="317" 
d="M101 731h198v-70h-119v-693h119v-70h-198v833z" />
    <glyph glyph-name="backslash" unicode="\" horiz-adv-x="432" 
d="M45 731h79l252 -804h-80z" />
    <glyph glyph-name="bracketright" unicode="]" horiz-adv-x="285" 
d="M184 -102h-198v70h119v693h-119v70h198v-833z" />
    <glyph glyph-name="asciicircum" unicode="^" horiz-adv-x="448" 
d="M21 245l176 341h61l176 -341h-88l-119 246l-117 -246h-89z" />
    <glyph glyph-name="underscore" unicode="_" horiz-adv-x="726" 
d="M55 -56h616v-68h-616v68z" />
    <glyph glyph-name="grave" unicode="`" horiz-adv-x="315" 
d="M57 860l235 -133l-23 -50l-245 113z" />
    <glyph glyph-name="a" unicode="a" horiz-adv-x="560" 
d="M397 310q0 65 -27 93t-78.5 28t-83 -20.5t-31.5 -64.5h-87q0 110 118 136q36 8 78 8q89 0 139 -45t50 -137v-308h-68l-8 80q-44 -91 -159 -91q-77 0 -123.5 43t-46.5 107t51.5 100t128.5 36t147 -26v61zM397 199q-71 20 -124 20t-86 -19t-33 -60q0 -90 102 -90
q58 0 99.5 41.5t41.5 107.5z" />
    <glyph glyph-name="b" unicode="b" horiz-adv-x="584" 
d="M180 407q48 83 140 83t153 -68.5t61 -181t-62 -182t-151 -69.5q-48 0 -86.5 24t-60.5 71l-18 -84h-55v681h79v-274zM220 383.5q-38 -36.5 -40 -101.5v-78q0 -66 39.5 -105.5t95.5 -39.5t97 49.5t41 131.5t-40.5 131t-97.5 49t-95 -36.5z" />
    <glyph glyph-name="c" unicode="c" horiz-adv-x="515" 
d="M395 446.5q50 -43.5 65 -108.5l-80 -7q-13 42 -42 65.5t-64 23.5q-64 0 -103.5 -48t-39.5 -130.5t38.5 -132.5t96 -50t86 26.5t28.5 75.5h81q0 -77 -53.5 -124.5t-139.5 -47.5q-91 0 -154.5 69t-63.5 183.5t63 181.5t147.5 67t134.5 -43.5z" />
    <glyph glyph-name="d" unicode="d" horiz-adv-x="594" 
d="M414 407v274h78v-681h-64l-10 80q-23 -45 -61 -68t-83 -23q-91 0 -152.5 70t-61.5 182.5t60.5 180.5t153 68t140.5 -83zM180.5 371q-39.5 -49 -39.5 -131t40 -131.5t96 -49.5t95.5 37.5t41.5 100.5v78q0 67 -39 106t-97 39t-97.5 -49z" />
    <glyph glyph-name="e" unicode="e" horiz-adv-x="515" 
d="M266 53q99 0 113 87h81q-11 -72 -63.5 -111.5t-130.5 -39.5q-96 0 -156 68.5t-60 182.5t60.5 182t161 68t150 -78t34.5 -190h-327q0 -74 36 -121.5t101 -47.5zM324 415q-23 12 -56 12q-61 0 -96.5 -41.5t-41.5 -103.5h255q0 100 -61 133z" />
    <glyph glyph-name="f" unicode="f" horiz-adv-x="343" 
d="M333 614q-33 13 -52 13q-35 0 -55 -17t-20 -60v-72h99v-54h-99v-424h-78v424h-79v54h79v73q0 71 39 104.5t90 33.5t90 -13z" />
    <glyph glyph-name="g" unicode="g" horiz-adv-x="565" 
d="M121 15q-60 29 -60 89q0 31 23.5 54.5t58.5 31.5q-54 48 -54 126t55.5 126t131.5 48t129 -36q7 53 42.5 85t93.5 32l-7 -78q-88 0 -92 -74q35 -43 35 -103q0 -77 -55.5 -126.5t-138.5 -49.5q-57 0 -101 23q-20 -4 -36 -18.5t-16 -39.5q0 -53 88 -53h186q67 0 106 -28.5
t39 -79.5q0 -76 -76.5 -133t-193.5 -57t-184 43.5t-67 109.5q0 43 25.5 70t67.5 38zM106 -90q0 -38 41.5 -65.5t126 -27.5t141 36.5t56.5 85.5q0 23 -16.5 39.5t-50.5 16.5h-193q-51 -2 -78 -24.5t-27 -60.5zM369 400.5q-31 32.5 -85.5 32.5t-85.5 -32.5t-31 -84.5
t31.5 -85.5t85.5 -33.5t85 34t31 85.5t-31 84z" />
    <glyph glyph-name="h" unicode="h" horiz-adv-x="604" 
d="M180 390q48 100 159 100q85 0 132.5 -56t47.5 -153v-281h-78v281q0 69 -32.5 104t-93.5 35t-98 -51.5t-37 -142.5v-226h-79v681h79v-291z" />
    <glyph glyph-name="i" unicode="i" horiz-adv-x="299" 
d="M106 479h79v-479h-79v479zM107.5 604.5q-13.5 13.5 -13.5 36t13.5 36t37.5 13.5t38.5 -13.5t14.5 -36t-14.5 -36t-38.5 -13.5t-37.5 13.5z" />
    <glyph glyph-name="j" unicode="j" horiz-adv-x="314" 
d="M122.5 604.5q-13.5 13.5 -13.5 36t13.5 36t37.5 13.5t38.5 -13.5t14.5 -36t-14.5 -36t-38.5 -13.5t-37.5 13.5zM33 -177q88 0 88 110v547h79v-547q0 -137 -90 -169q-28 -10 -62 -10q-62 0 -134 37l4 69q63 -37 115 -37z" />
    <glyph glyph-name="k" unicode="k" horiz-adv-x="564" 
d="M244 253l-64 -52v-201h-79v681h79v-396l231 193h110l-220 -179l231 -299h-97z" />
    <glyph glyph-name="l" unicode="l" 
d="M101 681h79v-681h-79v681z" />
    <glyph glyph-name="m" unicode="m" horiz-adv-x="935" 
d="M177 386q47 104 161 104q62 0 104 -30.5t61 -84.5q45 115 167 115q86 0 133 -56t47 -153v-281h-78v281q0 69 -32.5 104t-93.5 35t-94.5 -50t-33.5 -138v-232h-78v281q0 69 -32.5 104t-92.5 35t-97 -49t-39 -136v-235h-79v478h68z" />
    <glyph glyph-name="n" unicode="n" horiz-adv-x="603" 
d="M177 386q47 104 161 104q85 0 132.5 -56t47.5 -153v-281h-78v281q0 69 -32.5 104t-92.5 35t-97 -49t-39 -136v-235h-79v478h68z" />
    <glyph glyph-name="o" unicode="o" horiz-adv-x="546" 
d="M273 490q100 0 161.5 -65t61.5 -186q0 -120 -61.5 -185t-161.5 -65t-161.5 65t-61.5 185q0 121 61.5 186t161.5 65zM380 373.5q-36 48.5 -105.5 48.5t-106.5 -48.5t-37 -134t35 -134t104.5 -48.5t107.5 48.5t38 134t-36 134z" />
    <glyph glyph-name="p" unicode="p" horiz-adv-x="594" 
d="M175 405q47 85 140.5 85t156 -69t62.5 -182t-63 -181.5t-155 -68.5t-136 69v-293h-79v713h65zM410.5 107q42.5 48 42.5 131.5t-40.5 132.5t-98.5 49t-95 -36.5t-39 -98.5v-91q0 -63 38 -99t94 -36t98.5 48z" />
    <glyph glyph-name="q" unicode="q" horiz-adv-x="585" 
d="M264 490q102 0 148 -90l17 78h54v-559q0 -49 11.5 -65.5t26 -24t35.5 -14.5l-26 -61q-68 18 -96.5 57t-28.5 113v152q-41 -87 -134.5 -87t-156.5 68.5t-63 181.5t62.5 182t150.5 69zM172.5 371q-40.5 -49 -40.5 -132.5t43 -131.5t100 -48q82 0 117 73q12 23 13 55v91
q0 66 -38 104t-96 38t-98.5 -49z" />
    <glyph glyph-name="r" unicode="r" horiz-adv-x="381" 
d="M296 411q-113 0 -117 -178v-233h-79v479h79v-92q36 100 127 100q29 0 55 -9l-4 -77q-30 10 -61 10z" />
    <glyph glyph-name="s" unicode="s" horiz-adv-x="526" 
d="M126.5 455q50.5 35 136.5 35t134.5 -36t50.5 -91h-77q-9 65 -110 65q-49 0 -75.5 -22t-26.5 -47.5t20 -43t64 -30.5l96 -32q61 -19 93.5 -48.5t32.5 -81t-53 -93t-148 -41.5t-148 42.5t-56 109.5h76q2 -45 36.5 -67.5t86.5 -22.5t86 22t34 52.5t-20 46.5t-65 28l-93 31
q-125 37 -125 130q0 59 50.5 94z" />
    <glyph glyph-name="t" unicode="t" horiz-adv-x="376" 
d="M351 14q-86 -40 -157 -17q-51 16 -72 67q-11 25 -11 60v294h-77v60h77v133h78v-133h150v-60h-150v-293q0 -73 68 -73q37 0 83 18z" />
    <glyph glyph-name="u" unicode="u" horiz-adv-x="606" 
d="M426 95q-49 -104 -159 -104q-81 0 -130.5 45t-49.5 139v304h79v-298q0 -121 112 -121q65 0 105.5 50t42.5 128v241h79v-479h-79v95z" />
    <glyph glyph-name="v" unicode="v" horiz-adv-x="503" 
d="M107 478l144 -395l145 395h89l-190 -478h-87l-190 478h89z" />
    <glyph glyph-name="w" unicode="w" horiz-adv-x="725" 
d="M100 478l116 -381l114 358h66l113 -362l117 385h78l-156 -478h-77l-110 335l-108 -335h-76l-159 478h82z" />
    <glyph glyph-name="x" unicode="x" horiz-adv-x="512" 
d="M485 0h-96l-137 181l-130 -181h-96l181 239l-181 240h96l137 -180l131 180h96l-183 -240z" />
    <glyph glyph-name="y" unicode="y" horiz-adv-x="484" 
d="M5 -139q49 -38 103 -38q40 0 69 40q21 29 38 88l14 49l-196 478h88l145 -381l113 381h80l-179 -573q-23 -73 -60.5 -112t-95 -39t-119.5 35v72z" />
    <glyph glyph-name="z" unicode="z" horiz-adv-x="475" 
d="M53 64l281 350h-281v64h370v-64l-277 -350h277v-64h-370v64z" />
    <glyph glyph-name="braceleft" unicode="{" horiz-adv-x="349" 
d="M154 303q52 -25 52 -113v-93q0 -81 30.5 -123.5t104.5 -42.5v-69q-213 0 -213 234v92q0 43 -8.5 61t-27.5 18h-17v76h17q19 0 27.5 17.5t8.5 61.5v91q0 168 114 217q40 18 99 18v-69q-74 0 -104.5 -42.5t-30.5 -124.5v-92q0 -86 -52 -113v-4z" />
    <glyph glyph-name="bar" unicode="|" 
d="M101 750h79v-872h-79v872z" />
    <glyph glyph-name="braceright" unicode="}" horiz-adv-x="349" 
d="M195 307q-52 27 -52 113v92q0 82 -30.5 124.5t-104.5 42.5v69q213 0 213 -235v-91q0 -44 8.5 -61.5t27.5 -17.5h17v-76h-17q-19 0 -27.5 -18t-8.5 -61v-92q0 -168 -114 -216q-41 -18 -99 -18v69q74 0 104.5 42.5t30.5 123.5v93q0 88 52 113v4z" />
    <glyph glyph-name="asciitilde" unicode="~" horiz-adv-x="515" 
d="M158 282q-37 0 -61 -59l-44 23q33 111 107 111q34 0 101 -27.5t93 -27.5q40 0 65 57l43 -27q-35 -106 -113 -106q-23 0 -71 18t-62 24q-39 14 -58 14z" />
    <glyph glyph-name="sterling" unicode="&#xa3;" horiz-adv-x="565" 
d="M400 490q-16 78 -102 78q-42 0 -70.5 -32t-28.5 -104v-109h182v-56h-182v-104q0 -68 -37 -94h183q49 0 71.5 20.5t28.5 64.5h84q-6 -77 -48 -115.5t-136 -38.5h-325v69h28q38 0 55.5 22t17.5 68v108h-91v56h91v109q0 99 46.5 153.5t137.5 54.5q71 0 116 -38t56 -112h-77z
" />
    <glyph glyph-name="dieresis" unicode="&#xa8;" horiz-adv-x="323" 
d="M38.5 793.5q-14.5 14.5 -14.5 35.5t14.5 35.5t37.5 14.5t38.5 -14.5t15.5 -35.5t-15.5 -35.5t-38.5 -14.5t-37.5 14.5zM207 793.5q-15 14.5 -15 35.5t15 35.5t37.5 14.5t38 -14.5t15.5 -35.5t-15.5 -35.5t-38 -14.5t-37.5 14.5z" />
    <glyph glyph-name="acute" unicode="&#xb4;" horiz-adv-x="315" 
d="M290 790l-244 -113l-23 50l235 133z" />
    <glyph glyph-name="Agrave" unicode="&#xc0;" horiz-adv-x="575" 
d="M242 629h96l211 -629h-82l-54 160h-250l-54 -160h-83zM184 222h209l-104 310zM190 860l235 -133l-23 -50l-245 113z" />
    <glyph glyph-name="Aacute" unicode="&#xc1;" horiz-adv-x="575" 
d="M242 629h96l211 -629h-82l-54 160h-250l-54 -160h-83zM184 222h209l-104 310zM423 790l-244 -113l-23 50l235 133z" />
    <glyph glyph-name="Acircumflex" unicode="&#xc2;" horiz-adv-x="575" 
d="M242 629h96l211 -629h-82l-54 160h-250l-54 -160h-83zM184 222h209l-104 310zM469 716l-50 -39l-129 108l-130 -108l-50 39l180 156z" />
    <glyph glyph-name="Atilde" unicode="&#xc3;" horiz-adv-x="575" 
d="M242 629h96l211 -629h-82l-54 160h-250l-54 -160h-83zM184 222h209l-104 310zM221 770q-32 0 -57 -51l-32 19q12 51 35 77.5t49 26.5t60 -17q46 -23 59.5 -29t26.5 -6t27 12.5t24 39.5l35 -23q-11 -48 -35.5 -74t-45 -26t-37.5 6t-47 21.5t-40.5 19.5t-21.5 4z" />
    <glyph glyph-name="Adieresis" unicode="&#xc4;" horiz-adv-x="575" 
d="M242 629h96l211 -629h-82l-54 160h-250l-54 -160h-83zM184 222h209l-104 310zM188.5 749.5q-14.5 14.5 -14.5 35.5t14.5 35.5t37.5 14.5t38.5 -14.5t15.5 -35.5t-15.5 -35.5t-38.5 -14.5t-37.5 14.5zM357 749.5q-15 14.5 -15 35.5t15 35.5t37.5 14.5t38 -14.5t15.5 -35.5
t-15.5 -35.5t-38 -14.5t-37.5 14.5z" />
    <glyph glyph-name="Egrave" unicode="&#xc8;" horiz-adv-x="564" 
d="M100 629h387v-68h-308v-211h290v-67h-290v-214h308v-69h-387v629zM194 860l235 -133l-23 -50l-245 113z" />
    <glyph glyph-name="Eacute" unicode="&#xc9;" horiz-adv-x="564" 
d="M100 0h387v69h-308v214h290v67h-290v211h308v68h-387v-629zM427 790l-244 -113l-23 50l235 133z" />
    <glyph glyph-name="Ecircumflex" unicode="&#xca;" horiz-adv-x="564" 
d="M105 629h387v-68h-308v-211h290v-67h-290v-214h308v-69h-387v629zM479 716l-50 -39l-129 108l-130 -108l-50 39l180 156z" />
    <glyph glyph-name="Edieresis" unicode="&#xcb;" horiz-adv-x="564" 
d="M100 629h387v-68h-308v-211h290v-67h-290v-214h308v-69h-387v629zM172.5 749.5q-14.5 14.5 -14.5 35.5t14.5 35.5t37.5 14.5t38.5 -14.5t15.5 -35.5t-15.5 -35.5t-38.5 -14.5t-37.5 14.5zM341 749.5q-15 14.5 -15 35.5t15 35.5t37.5 14.5t38 -14.5t15.5 -35.5
t-15.5 -35.5t-38 -14.5t-37.5 14.5z" />
    <glyph glyph-name="Igrave" unicode="&#xcc;" 
d="M101 629h79v-629h-79v629zM40 860l235 -133l-23 -50l-245 113z" />
    <glyph glyph-name="Iacute" unicode="&#xcd;" 
d="M101 0h79v629h-79v-629zM273 790l-244 -113l-23 50l235 133z" />
    <glyph glyph-name="Icircumflex" unicode="&#xce;" 
d="M101 629h79v-629h-79v629zM320 716l-50 -39l-129 108l-130 -108l-50 39l180 156z" />
    <glyph glyph-name="Idieresis" unicode="&#xcf;" 
d="M101 629h79v-629h-79v629zM18.5 749.5q-14.5 14.5 -14.5 35.5t14.5 35.5t37.5 14.5t38.5 -14.5t15.5 -35.5t-15.5 -35.5t-38.5 -14.5t-37.5 14.5zM187 749.5q-15 14.5 -15 35.5t15 35.5t37.5 14.5t38 -14.5t15.5 -35.5t-15.5 -35.5t-38 -14.5t-37.5 14.5z" />
    <glyph glyph-name="Ntilde" unicode="&#xd1;" horiz-adv-x="686" 
d="M99 629v-629h80v512l317 -512h88v629h-79v-505l-312 505h-94zM274 770q-32 0 -57 -51l-32 19q12 51 35 77.5t49 26.5t59 -17q47 -23 60.5 -29t26.5 -6t27 12.5t24 39.5l35 -23q-11 -48 -35.5 -74t-45 -26t-37.5 6t-47 21.5t-40.5 19.5t-21.5 4z" />
    <glyph glyph-name="Ograve" unicode="&#xd2;" horiz-adv-x="646" 
d="M323 640q122 0 197.5 -83.5t75.5 -243t-75 -242t-198 -82.5t-197.5 83.5t-74.5 241.5q0 159 74.5 242.5t197.5 83.5zM323 569q-88 0 -139 -66t-51 -190t51 -188t139 -64t139.5 64t51.5 188t-51.5 190t-139.5 66zM223 860l235 -133l-23 -50l-245 113z" />
    <glyph glyph-name="Oacute" unicode="&#xd3;" horiz-adv-x="646" 
d="M323 640q-123 0 -197.5 -83.5t-74.5 -242.5q0 -158 74.5 -241.5t197.5 -83.5t198 82.5t75 242t-75.5 243t-197.5 83.5zM323 569q88 0 139.5 -66t51.5 -190t-51.5 -188t-139.5 -64t-139 64t-51 188t51 190t139 66zM456 790l-244 -113l-23 50l235 133z" />
    <glyph glyph-name="Ocircumflex" unicode="&#xd4;" horiz-adv-x="646" 
d="M323 640q122 0 197.5 -83.5t75.5 -243t-75 -242t-198 -82.5t-197.5 83.5t-74.5 241.5q0 159 74.5 242.5t197.5 83.5zM323 569q-88 0 -139 -66t-51 -190t51 -188t139 -64t139.5 64t51.5 188t-51.5 190t-139.5 66zM502 716l-50 -39l-129 108l-130 -108l-50 39l180 156z" />
    <glyph glyph-name="Otilde" unicode="&#xd5;" horiz-adv-x="646" 
d="M323 640q-123 0 -197.5 -83.5t-74.5 -242.5q0 -158 74.5 -241.5t197.5 -83.5t198 82.5t75 242t-75.5 243t-197.5 83.5zM323 569q88 0 139.5 -66t51.5 -190t-51.5 -188t-139.5 -64t-139 64t-51 188t51 190t139 66zM254 770q-32 0 -57 -51l-32 19q12 51 35 77.5t49 26.5
t59 -17q47 -23 60.5 -29t26.5 -6t27 12.5t24 39.5l35 -23q-11 -48 -35.5 -74t-45 -26t-37.5 6t-47 21.5t-40.5 19.5t-21.5 4z" />
    <glyph glyph-name="Odieresis" unicode="&#xd6;" horiz-adv-x="646" 
d="M323 640q122 0 197.5 -83.5t75.5 -243t-75 -242t-198 -82.5t-197.5 83.5t-74.5 241.5q0 159 74.5 242.5t197.5 83.5zM323 569q-88 0 -139 -66t-51 -190t51 -188t139 -64t139.5 64t51.5 188t-51.5 190t-139.5 66zM200.5 749.5q-14.5 14.5 -14.5 35.5t14.5 35.5t37.5 14.5
t38.5 -14.5t15.5 -35.5t-15.5 -35.5t-38.5 -14.5t-37.5 14.5zM369 749.5q-15 14.5 -15 35.5t15 35.5t37.5 14.5t38 -14.5t15.5 -35.5t-15.5 -35.5t-38 -14.5t-37.5 14.5z" />
    <glyph glyph-name="Ugrave" unicode="&#xd9;" horiz-adv-x="654" 
d="M166 629v-402q0 -88 44 -127t116 -39t116 39t44 127v402h79v-402q0 -118 -65 -178t-174.5 -60t-174 60t-64.5 178v402h79zM226 860l235 -133l-23 -50l-245 113z" />
    <glyph glyph-name="Uacute" unicode="&#xda;" horiz-adv-x="654" 
d="M87 629v-402q0 -118 64.5 -178t174 -60t174.5 60t65 178v402h-79v-402q0 -88 -44 -127t-116 -39t-116 39t-44 127v402h-79zM459 790l-244 -113l-23 50l235 133z" />
    <glyph glyph-name="Ucircumflex" unicode="&#xdb;" horiz-adv-x="654" 
d="M166 629v-402q0 -88 44 -127t116 -39t116 39t44 127v402h79v-402q0 -118 -65 -178t-174.5 -60t-174 60t-64.5 178v402h79zM505 716l-50 -39l-129 108l-130 -108l-50 39l180 156z" />
    <glyph glyph-name="Udieresis" unicode="&#xdc;" horiz-adv-x="654" 
d="M166 629v-402q0 -88 44 -127t116 -39t116 39t44 127v402h79v-402q0 -118 -65 -178t-174.5 -60t-174 60t-64.5 178v402h79zM203.5 749.5q-14.5 14.5 -14.5 35.5t14.5 35.5t37.5 14.5t38.5 -14.5t15.5 -35.5t-15.5 -35.5t-38.5 -14.5t-37.5 14.5zM372 749.5
q-15 14.5 -15 35.5t15 35.5t37.5 14.5t38 -14.5t15.5 -35.5t-15.5 -35.5t-38 -14.5t-37.5 14.5z" />
    <glyph glyph-name="agrave" unicode="&#xe0;" horiz-adv-x="551" 
d="M387 310q0 65 -27 93t-78.5 28t-83 -20.5t-31.5 -64.5h-87q0 110 118 136q36 8 78 8q89 0 139 -45t50 -137v-308h-68l-8 80q-44 -91 -159 -91q-77 0 -123.5 43t-46.5 107t51.5 100t128.5 36t147 -26v61zM387 199q-71 20 -124 20t-86 -19t-33 -60q0 -90 102 -90
q58 0 99.5 41.5t41.5 107.5zM182 731l235 -133l-23 -50l-245 113z" />
    <glyph glyph-name="aacute" unicode="&#xe1;" horiz-adv-x="551" 
d="M387 310q0 65 -27 93t-78.5 28t-83 -20.5t-31.5 -64.5h-87q0 110 118 136q36 8 78 8q89 0 139 -45t50 -137v-308h-68l-8 80q-44 -91 -159 -91q-77 0 -123.5 43t-46.5 107t51.5 100t128.5 36t147 -26v61zM387 199q-71 20 -124 20t-86 -19t-33 -60q0 -90 102 -90
q57 0 98 40t43 103v6zM415 661l-244 -113l-23 50l235 133z" />
    <glyph glyph-name="acircumflex" unicode="&#xe2;" horiz-adv-x="551" 
d="M387 310q0 65 -27 93t-78.5 28t-83 -20.5t-31.5 -64.5h-87q0 110 118 136q36 8 78 8q89 0 139 -45t50 -137v-308h-68l-8 80q-44 -91 -159 -91q-77 0 -123.5 43t-46.5 107t51.5 100t128.5 36t147 -26v61zM387 199q-71 20 -124 20t-86 -19t-33 -60q0 -90 102 -90
q58 0 99.5 41.5t41.5 107.5zM461 587l-50 -39l-129 108l-130 -108l-50 39l180 156z" />
    <glyph glyph-name="atilde" unicode="&#xe3;" horiz-adv-x="551" 
d="M387 310q0 65 -27 93t-78.5 28t-83 -20.5t-31.5 -64.5h-87q0 110 118 136q36 8 78 8q89 0 139 -45t50 -137v-308h-68l-8 80q-44 -91 -159 -91q-77 0 -123.5 43t-46.5 107t51.5 100t128.5 36t147 -26v61zM387 199q-71 20 -124 20t-86 -19t-33 -60q0 -90 102 -90
q57 0 98 40t43 103v6zM213 641q-32 0 -57 -51l-32 19q12 51 35 77.5t49 26.5t60 -17q46 -23 59.5 -29t26.5 -6t27 12.5t24 39.5l35 -23q-11 -48 -35.5 -74t-45 -26t-37.5 6t-47 21.5t-40.5 19.5t-21.5 4z" />
    <glyph glyph-name="adieresis" unicode="&#xe4;" horiz-adv-x="551" 
d="M387 310q0 65 -27 93t-78.5 28t-83 -20.5t-31.5 -64.5h-87q0 110 118 136q36 8 78 8q89 0 139 -45t50 -137v-308h-68l-8 80q-44 -91 -159 -91q-77 0 -123.5 43t-46.5 107t51.5 100t128.5 36t147 -26v61zM387 199q-71 20 -124 20t-86 -19t-33 -60q0 -90 102 -90
q58 0 99.5 41.5t41.5 107.5zM159.5 619.5q-14.5 14.5 -14.5 35.5t14.5 35.5t37.5 14.5t38.5 -14.5t15.5 -35.5t-15.5 -35.5t-38.5 -14.5t-37.5 14.5zM328 619.5q-15 14.5 -15 35.5t15 35.5t37.5 14.5t38 -14.5t15.5 -35.5t-15.5 -35.5t-38 -14.5t-37.5 14.5z" />
    <glyph glyph-name="egrave" unicode="&#xe8;" horiz-adv-x="514" 
d="M267 53q99 0 113 87h81q-11 -72 -63.5 -111.5t-130.5 -39.5q-96 0 -156 68.5t-60 182.5t60.5 182t161 68t150 -78t34.5 -190h-327q0 -74 36 -121.5t101 -47.5zM324 415q-22 12 -54 12q-62 0 -97.5 -41.5t-41.5 -103.5h255q0 100 -62 133zM159 736l235 -133l-23 -50
l-245 113z" />
    <glyph glyph-name="eacute" unicode="&#xe9;" horiz-adv-x="514" 
d="M380 140q-14 -87 -113 -87q-65 0 -101 47.5t-36 121.5h327q15 112 -34.5 190t-150 78t-161 -68t-60.5 -182t60 -182.5t156 -68.5q78 0 130.5 39.5t63.5 111.5h-81zM358.5 385.5q27.5 -41.5 27.5 -103.5h-255q6 62 41.5 103.5t97 41.5t89 -41.5zM392 666l-244 -113l-23 50
l235 133z" />
    <glyph glyph-name="ecircumflex" unicode="&#xea;" horiz-adv-x="514" 
d="M270 53q99 0 113 87h81q-11 -72 -63.5 -111.5t-130.5 -39.5q-96 0 -156 68.5t-60 182.5t60.5 182t161 68t150 -78t34.5 -190h-327q0 -74 36 -121.5t101 -47.5zM328 415q-23 12 -56 12q-61 0 -96.5 -41.5t-41.5 -103.5h255q0 100 -61 133zM442 592l-50 -39l-129 108
l-130 -108l-50 39l180 156z" />
    <glyph glyph-name="edieresis" unicode="&#xeb;" horiz-adv-x="514" 
d="M267 53q99 0 113 87h81q-11 -72 -63.5 -111.5t-130.5 -39.5q-96 0 -156 68.5t-60 182.5t60.5 182t161 68t150 -78t34.5 -190h-327q0 -74 36 -121.5t101 -47.5zM324 415q-22 12 -54 12q-62 0 -97.5 -41.5t-41.5 -103.5h255q0 100 -62 133zM137.5 619.5
q-14.5 14.5 -14.5 35.5t14.5 35.5t37.5 14.5t38.5 -14.5t15.5 -35.5t-15.5 -35.5t-38.5 -14.5t-37.5 14.5zM306 619.5q-15 14.5 -15 35.5t15 35.5t37.5 14.5t38 -14.5t15.5 -35.5t-15.5 -35.5t-38 -14.5t-37.5 14.5z" />
    <glyph glyph-name="igrave" unicode="&#xec;" horiz-adv-x="299" 
d="M106 479h79v-479h-79v479zM45 731l235 -133l-23 -50l-245 113z" />
    <glyph glyph-name="iacute" unicode="&#xed;" horiz-adv-x="299" 
d="M106 0h79v479h-79v-479zM278 661l-244 -113l-23 50l235 133z" />
    <glyph glyph-name="icircumflex" unicode="&#xee;" horiz-adv-x="299" 
d="M106 479h79v-479h-79v479zM325 587l-50 -39l-129 108l-130 -108l-50 39l180 156z" />
    <glyph glyph-name="idieresis" unicode="&#xef;" horiz-adv-x="299" 
d="M106 479h79v-479h-79v479zM23.5 619.5q-14.5 14.5 -14.5 35.5t14.5 35.5t37.5 14.5t38.5 -14.5t15.5 -35.5t-15.5 -35.5t-38.5 -14.5t-37.5 14.5zM192 619.5q-15 14.5 -15 35.5t15 35.5t37.5 14.5t38 -14.5t15.5 -35.5t-15.5 -35.5t-38 -14.5t-37.5 14.5z" />
    <glyph glyph-name="ntilde" unicode="&#xf1;" horiz-adv-x="604" 
d="M339 490q-114 0 -161 -104l-9 92h-68v-478h79v235q2 87 39 136t97 49t92.5 -35t32.5 -104v-281h78v281q0 97 -47.5 153t-132.5 56zM237 641q-32 0 -57 -51l-32 19q12 51 35 77.5t49 26.5t60 -17q46 -23 59.5 -29t26.5 -6t27 12.5t24 39.5l35 -23q-11 -48 -35.5 -74
t-45 -26t-37.5 6t-47 21.5t-40.5 19.5t-21.5 4z" />
    <glyph glyph-name="ograve" unicode="&#xf2;" horiz-adv-x="547" 
d="M274 490q100 0 161.5 -65t61.5 -186q0 -120 -61.5 -185t-161.5 -65t-161.5 65t-61.5 185q0 121 61.5 186t161.5 65zM381 373.5q-36 48.5 -105.5 48.5t-106.5 -48.5t-37 -134t35 -134t104.5 -48.5t107.5 48.5t38 134t-36 134zM174 731l235 -133l-23 -50l-245 113z" />
    <glyph glyph-name="oacute" unicode="&#xf3;" horiz-adv-x="547" 
d="M274 490q-100 0 -161.5 -65t-61.5 -186q0 -120 61.5 -185t161.5 -65t161.5 65t61.5 185q0 121 -61.5 186t-161.5 65zM169 373.5q37 48.5 106.5 48.5t105.5 -48.5t36 -134t-38 -134t-107.5 -48.5t-104.5 48.5t-35 134t37 134zM407 661l-244 -113l-23 50l235 133z" />
    <glyph glyph-name="ocircumflex" unicode="&#xf4;" horiz-adv-x="547" 
d="M274 490q100 0 161.5 -65t61.5 -186q0 -120 -61.5 -185t-161.5 -65t-161.5 65t-61.5 185q0 121 61.5 186t161.5 65zM381 373.5q-36 48.5 -105.5 48.5t-106.5 -48.5t-37 -134t35 -134t104.5 -48.5t107.5 48.5t38 134t-36 134zM453 587l-50 -39l-129 108l-130 -108l-50 39
l180 156z" />
    <glyph glyph-name="otilde" unicode="&#xf5;" horiz-adv-x="547" 
d="M274 490q-100 0 -161.5 -65t-61.5 -186q0 -120 61.5 -185t161.5 -65t161.5 65t61.5 185q0 121 -61.5 186t-161.5 65zM169 373.5q37 48.5 106.5 48.5t105.5 -48.5t36 -134t-38 -134t-107.5 -48.5t-104.5 48.5t-35 134t37 134zM206 641q-32 0 -57 -51l-32 19q12 51 35 77.5
t49 26.5t59 -17q47 -23 60.5 -29t26.5 -6t27 12.5t24 39.5l35 -23q-11 -48 -35.5 -74t-45 -26t-37.5 6t-47 21.5t-40.5 19.5t-21.5 4z" />
    <glyph glyph-name="odieresis" unicode="&#xf6;" horiz-adv-x="547" 
d="M274 490q100 0 161.5 -65t61.5 -186q0 -120 -61.5 -185t-161.5 -65t-161.5 65t-61.5 185q0 121 61.5 186t161.5 65zM381 373.5q-36 48.5 -105.5 48.5t-106.5 -48.5t-37 -134t35 -134t104.5 -48.5t107.5 48.5t38 134t-36 134zM152.5 619.5q-14.5 14.5 -14.5 35.5
t14.5 35.5t37.5 14.5t38.5 -14.5t15.5 -35.5t-15.5 -35.5t-38.5 -14.5t-37.5 14.5zM321 619.5q-15 14.5 -15 35.5t15 35.5t37.5 14.5t38 -14.5t15.5 -35.5t-15.5 -35.5t-38 -14.5t-37.5 14.5z" />
    <glyph glyph-name="ugrave" unicode="&#xf9;" horiz-adv-x="606" 
d="M426 95q-49 -104 -159 -104q-81 0 -130.5 45t-49.5 139v304h79v-298q0 -121 112 -121q65 0 105.5 50t42.5 128v241h79v-479h-79v95zM200 769l235 -133l-23 -50l-245 113z" />
    <glyph glyph-name="uacute" unicode="&#xfa;" horiz-adv-x="606" 
d="M267 -9q110 0 159 104v-95h79v479h-79v-233q0 -83 -41 -134.5t-107 -51.5q-112 0 -112 121v298h-79v-304q0 -94 49.5 -139t130.5 -45zM433 699l-244 -113l-23 50l235 133z" />
    <glyph glyph-name="ucircumflex" unicode="&#xfb;" horiz-adv-x="606" 
d="M426 95q-49 -104 -159 -104q-81 0 -130.5 45t-49.5 139v304h79v-298q0 -121 112 -121q65 0 105.5 50t42.5 128v241h79v-479h-79v95zM480 625l-50 -39l-129 108l-130 -108l-50 39l180 156z" />
    <glyph glyph-name="udieresis" unicode="&#xfc;" horiz-adv-x="606" 
d="M426 95q-49 -104 -159 -104q-81 0 -130.5 45t-49.5 139v304h79v-298q0 -121 112 -121q65 0 105.5 50t42.5 128v241h79v-479h-79v95zM178.5 619.5q-14.5 14.5 -14.5 35.5t14.5 35.5t37.5 14.5t38.5 -14.5t15.5 -35.5t-15.5 -35.5t-38.5 -14.5t-37.5 14.5zM347 619.5
q-15 14.5 -15 35.5t15 35.5t37.5 14.5t38 -14.5t15.5 -35.5t-15.5 -35.5t-38 -14.5t-37.5 14.5z" />
    <glyph glyph-name="dotlessi" unicode="&#x131;" 
d="M101 479h79v-479h-79v479z" />
    <glyph glyph-name="apostrophe" unicode="&#x2bc;" horiz-adv-x="184" 
d="M73 538q-15 13 -15 35t15.5 37t44 15t47.5 -22.5t19 -56.5t-22 -69.5t-67 -57.5l-59 29q62 30 75 75q-23 2 -38 15z" />
    <glyph glyph-name="circumflex" unicode="&#x2c6;" horiz-adv-x="407" 
d="M383 716l-50 -39l-129 108l-130 -108l-50 39l180 156z" />
    <glyph glyph-name="tilde" unicode="&#x2dc;" horiz-adv-x="366" 
d="M112 770q-32 0 -57 -51l-32 19q12 51 35 77.5t49 26.5t59 -17q47 -23 60.5 -29t26.5 -6t27 12.5t24 39.5l35 -23q-11 -48 -35.5 -74t-45 -26t-37.5 6t-47 21.5t-40.5 19.5t-21.5 4z" />
    <glyph glyph-name="endash" unicode="&#x2013;" horiz-adv-x="474" 
d="M55 325h364v-68h-364v68z" />
    <glyph glyph-name="emdash" unicode="&#x2014;" horiz-adv-x="726" 
d="M55 325h616v-68h-616v68z" />
    <glyph glyph-name="quoteleft" unicode="&#x2018;" horiz-adv-x="214" 
d="M146.5 433.5q-15.5 -15.5 -43.5 -15.5t-47.5 23t-19.5 57.5t23.5 70t68.5 57.5l56 -29q-62 -32 -75 -76q23 -2 38 -15t15 -35t-15.5 -37.5z" />
    <glyph glyph-name="quoteright" unicode="&#x2019;" horiz-adv-x="214" 
d="M52 611q16 15 44.5 15t47 -22t18.5 -57t-23.5 -70.5t-67.5 -58.5l-56 30q62 32 75 76q-23 2 -38.5 15t-15.5 35t16 37z" />
    <glyph glyph-name="rupeesymbol" unicode="&#x20b9;" horiz-adv-x="581" 
d="M92 629h416v-49h-183q69 -36 84 -103h99v-48h-94q-7 -115 -119 -159q-40 -15 -95 -20l274 -250h-112l-270 248v48h61q87 0 129 38t45 95h-235v48h231q-11 46 -52.5 74.5t-117.5 28.5h-61v49z" />
    <glyph glyph-name="minus" unicode="&#x2212;" horiz-adv-x="488" 
d="M409 325v-67h-330v67h330z" />
    <glyph glyph-name="zero.propold" horiz-adv-x="531" 
d="M265.5 551q98.5 0 157 -73t58.5 -208t-58.5 -208t-157 -73t-156.5 72.5t-58 208.5t58 208.5t156.5 72.5zM400 270q0 212 -134 212t-134 -212q0 -211 134 -211t134 211z" />
    <glyph glyph-name="one.propold" horiz-adv-x="331" 
d="M49 489q69 11 117 52h64v-541h-78v446q-51 -32 -103 -34v77z" />
    <glyph glyph-name="two.propold" horiz-adv-x="575" 
d="M143 73h357v-73h-436v84q0 80 37 121.5t113 58.5l103 25q53 12 78.5 36t25.5 63t-32 66t-90 27t-94.5 -23t-42.5 -70h-87q5 78 63 120.5t152.5 42.5t152.5 -48.5t58 -114.5t-37 -102.5t-113 -54.5l-111 -27q-97 -22 -97 -99v-32z" />
    <glyph glyph-name="three.propold" horiz-adv-x="562" 
d="M260 483q-110 0 -131 -93h-83q22 161 213 161q93 0 151 -46.5t58 -120.5q0 -51 -28.5 -82t-79.5 -50q61 -20 97 -67.5t36 -110.5q0 -82 -64.5 -135t-166.5 -53t-168 52t-66 150h80q2 -69 43.5 -101.5t107 -32.5t109.5 35.5t44 89.5q0 88 -89 121q-30 11 -72 11h-61v63h43
q72 0 113.5 26t41.5 75t-34 78.5t-94 29.5z" />
    <glyph glyph-name="four.propold" horiz-adv-x="560" 
d="M427 546v-425h109v-67h-109v-159h-78v159h-325v61l329 431h74zM112 115h239v307z" />
    <glyph glyph-name="five.propold" horiz-adv-x="569" 
d="M187 296q46 10 94 10q105 0 165 -53t60 -147t-67 -157t-162 -63t-153.5 50t-58.5 139h77q0 -57 35 -87t98 -30t107 42t44 105.5t-40.5 99.5t-119.5 36h-162l28 304h345v-71h-272z" />
    <glyph glyph-name="six.propold" horiz-adv-x="573" 
d="M425 470q-17 98 -107 98t-138.5 -74t-48.5 -202q0 -53 5 -88q6 92 56.5 133.5t129.5 41.5t136 -55.5t57 -142t-59 -140t-155 -53.5q-112 0 -181 90t-69 236.5t70 236t191 89.5q84 0 137 -47t61 -123h-85zM207.5 273.5q-37.5 -35.5 -37.5 -90.5t37 -88.5t94 -33.5t94.5 33
t37.5 91t-37.5 91t-94 33t-94 -35.5z" />
    <glyph glyph-name="seven.propold" horiz-adv-x="470" 
d="M452 551v-67l-300 -582h-97l314 579h-345v70h428z" />
    <glyph glyph-name="eight.propold" horiz-adv-x="615" 
d="M201 318q-125 57 -125 155q0 75 62 121t164.5 46t168.5 -49t66 -126q0 -52 -34.5 -93t-101.5 -51l17 -6q69 -26 106 -61.5t37 -96.5q0 -76 -67.5 -122t-182 -46t-185.5 51t-71 128q0 62 40.5 101t105.5 49zM276 289q-63 -7 -101 -39.5t-38 -80.5t48 -78t125.5 -30t123 26
t45.5 63t-24 59.5t-66 37.5zM159 463q0 -27 22 -46.5t63 -35.5l73 -28q60 2 99 31.5t39 77t-41 77t-106 29.5t-107 -28.5t-42 -76.5z" />
    <glyph glyph-name="nine.propold" horiz-adv-x="580" 
d="M286 551q53 0 99.5 -25.5t78.5 -69.5q66 -89 66 -239t-65 -240.5t-184 -90.5q-93 0 -152 55.5t-59 141.5h83q2 -57 34.5 -91t85 -34t83.5 20q93 57 93 260q0 45 -5 80q-8 -77 -55 -119.5t-125.5 -42.5t-138 56t-59.5 142q0 87 59 142t161 55zM279 481q-60 0 -95.5 -34.5
t-35.5 -93t36 -93t94.5 -34.5t95.5 37t37 93t-36 90.5t-96 34.5z" />
    <hkern u1="A" u2="y" k="28" />
    <hkern u1="A" u2="w" k="24" />
    <hkern u1="A" u2="v" k="22" />
    <hkern u1="A" u2="f" k="12" />
    <hkern u1="A" u2="Y" k="26" />
    <hkern u1="A" u2="W" k="28" />
    <hkern u1="A" u2="V" k="28" />
    <hkern u1="A" u2="T" k="40" />
    <hkern u1="D" u2="Y" k="25" />
    <hkern u1="F" u2="z" k="24" />
    <hkern u1="F" u2="y" k="28" />
    <hkern u1="F" u2="x" k="28" />
    <hkern u1="F" u2="w" k="36" />
    <hkern u1="F" u2="v" k="32" />
    <hkern u1="F" u2="u" k="24" />
    <hkern u1="F" u2="q" k="28" />
    <hkern u1="F" u2="o" k="28" />
    <hkern u1="F" u2="g" k="45" />
    <hkern u1="F" u2="e" k="28" />
    <hkern u1="F" u2="d" k="24" />
    <hkern u1="F" u2="c" k="28" />
    <hkern u1="F" u2="a" k="24" />
    <hkern u1="F" u2="Y" k="8" />
    <hkern u1="F" u2="X" k="16" />
    <hkern u1="F" u2="W" k="8" />
    <hkern u1="F" u2="A" k="57" />
    <hkern u1="L" u2="y" k="20" />
    <hkern u1="L" u2="w" k="24" />
    <hkern u1="L" u2="v" k="24" />
    <hkern u1="L" u2="Y" k="69" />
    <hkern u1="L" u2="W" k="41" />
    <hkern u1="L" u2="V" k="45" />
    <hkern u1="L" u2="T" k="49" />
    <hkern u1="L" u2="J" k="-16" />
    <hkern u1="O" u2="Y" k="16" />
    <hkern u1="O" u2="X" k="12" />
    <hkern u1="O" u2="V" k="8" />
    <hkern u1="P" u2="A" k="38" />
    <hkern u1="Q" u2="Y" k="16" />
    <hkern u1="S" u2="Y" k="26" />
    <hkern u1="T" u2="z" k="53" />
    <hkern u1="T" u2="y" k="50" />
    <hkern u1="T" u2="x" k="57" />
    <hkern u1="T" u2="w" k="40" />
    <hkern u1="T" u2="v" k="73" />
    <hkern u1="T" u2="u" k="69" />
    <hkern u1="T" u2="s" k="97" />
    <hkern u1="T" u2="r" k="73" />
    <hkern u1="T" u2="q" k="75" />
    <hkern u1="T" u2="p" k="69" />
    <hkern u1="T" u2="o" k="79" />
    <hkern u1="T" u2="n" k="69" />
    <hkern u1="T" u2="m" k="69" />
    <hkern u1="T" u2="g" k="87" />
    <hkern u1="T" u2="f" k="53" />
    <hkern u1="T" u2="e" k="75" />
    <hkern u1="T" u2="d" k="85" />
    <hkern u1="T" u2="c" k="75" />
    <hkern u1="T" u2="a" k="87" />
    <hkern u1="T" u2="J" k="69" />
    <hkern u1="T" u2="A" k="40" />
    <hkern u1="V" u2="s" k="33" />
    <hkern u1="V" u2="r" k="17" />
    <hkern u1="V" u2="q" k="29" />
    <hkern u1="V" u2="o" k="33" />
    <hkern u1="V" u2="g" k="49" />
    <hkern u1="V" u2="f" k="40" />
    <hkern u1="V" u2="e" k="33" />
    <hkern u1="V" u2="d" k="33" />
    <hkern u1="V" u2="c" k="33" />
    <hkern u1="V" u2="a" k="33" />
    <hkern u1="V" u2="O" k="8" />
    <hkern u1="V" u2="J" k="69" />
    <hkern u1="V" u2="C" k="8" />
    <hkern u1="V" u2="A" k="33" />
    <hkern u1="W" u2="u" k="28" />
    <hkern u1="W" u2="s" k="40" />
    <hkern u1="W" u2="r" k="33" />
    <hkern u1="W" u2="q" k="33" />
    <hkern u1="W" u2="o" k="33" />
    <hkern u1="W" u2="g" k="49" />
    <hkern u1="W" u2="f" k="40" />
    <hkern u1="W" u2="e" k="33" />
    <hkern u1="W" u2="d" k="33" />
    <hkern u1="W" u2="c" k="33" />
    <hkern u1="W" u2="a" k="33" />
    <hkern u1="W" u2="J" k="69" />
    <hkern u1="W" u2="A" k="33" />
    <hkern u1="X" u2="O" k="12" />
    <hkern u1="Y" u2="z" k="65" />
    <hkern u1="Y" u2="y" k="57" />
    <hkern u1="Y" u2="x" k="53" />
    <hkern u1="Y" u2="w" k="45" />
    <hkern u1="Y" u2="v" k="45" />
    <hkern u1="Y" u2="u" k="67" />
    <hkern u1="Y" u2="t" k="37" />
    <hkern u1="Y" u2="s" k="65" />
    <hkern u1="Y" u2="r" k="65" />
    <hkern u1="Y" u2="q" k="65" />
    <hkern u1="Y" u2="p" k="65" />
    <hkern u1="Y" u2="o" k="65" />
    <hkern u1="Y" u2="n" k="65" />
    <hkern u1="Y" u2="m" k="65" />
    <hkern u1="Y" u2="g" k="77" />
    <hkern u1="Y" u2="f" k="65" />
    <hkern u1="Y" u2="e" k="65" />
    <hkern u1="Y" u2="d" k="65" />
    <hkern u1="Y" u2="c" k="65" />
    <hkern u1="Y" u2="a" k="61" />
    <hkern u1="Y" u2="S" k="28" />
    <hkern u1="Y" u2="Q" k="16" />
    <hkern u1="Y" u2="O" k="16" />
    <hkern u1="Y" u2="J" k="82" />
    <hkern u1="Y" u2="H" k="8" />
    <hkern u1="Y" u2="C" k="17" />
    <hkern u1="Y" u2="A" k="69" />
    <hkern u1="a" u2="Y" k="53" />
    <hkern u1="a" u2="W" k="28" />
    <hkern u1="a" u2="V" k="37" />
    <hkern u1="a" u2="T" k="89" />
    <hkern u1="b" u2="Y" k="17" />
    <hkern u1="b" u2="V" k="29" />
    <hkern u1="b" u2="T" k="20" />
    <hkern u1="c" u2="Y" k="33" />
    <hkern u1="c" u2="V" k="28" />
    <hkern u1="c" u2="T" k="61" />
    <hkern u1="e" u2="Y" k="41" />
    <hkern u1="e" u2="V" k="24" />
    <hkern u1="e" u2="T" k="61" />
    <hkern u1="f" u2="s" k="24" />
    <hkern u1="f" u2="j" k="16" />
    <hkern u1="f" u2="g" k="26" />
    <hkern u1="f" u2="c" k="16" />
    <hkern u1="f" u2="J" k="53" />
    <hkern u1="f" u2="A" k="16" />
    <hkern u1="g" u2="y" k="-16" />
    <hkern u1="g" u2="j" k="-73" />
    <hkern u1="h" u2="Y" k="45" />
    <hkern u1="h" u2="T" k="8" />
    <hkern u1="j" u2="f" k="22" />
    <hkern u1="k" u2="y" k="16" />
    <hkern u1="k" u2="j" k="8" />
    <hkern u1="k" u2="f" k="16" />
    <hkern u1="m" u2="Y" k="41" />
    <hkern u1="m" u2="T" k="36" />
    <hkern u1="n" u2="Y" k="41" />
    <hkern u1="n" u2="T" k="44" />
    <hkern u1="o" u2="Y" k="65" />
    <hkern u1="o" u2="W" k="33" />
    <hkern u1="o" u2="V" k="33" />
    <hkern u1="o" u2="T" k="71" />
    <hkern u1="p" u2="Y" k="36" />
    <hkern u1="p" u2="T" k="53" />
    <hkern u1="q" u2="j" k="-81" />
    <hkern u1="q" u2="Y" k="47" />
    <hkern u1="q" u2="T" k="73" />
    <hkern u1="r" u2="g" k="20" />
    <hkern u1="r" u2="T" k="48" />
    <hkern u1="r" u2="J" k="40" />
    <hkern u1="s" u2="y" k="20" />
    <hkern u1="s" u2="f" k="28" />
    <hkern u1="s" u2="Y" k="57" />
    <hkern u1="s" u2="W" k="36" />
    <hkern u1="s" u2="V" k="28" />
    <hkern u1="s" u2="T" k="89" />
    <hkern u1="t" u2="Y" k="37" />
    <hkern u1="u" u2="Y" k="49" />
    <hkern u1="u" u2="T" k="57" />
    <hkern u1="v" u2="g" k="8" />
    <hkern u1="v" u2="Y" k="45" />
    <hkern u1="v" u2="T" k="60" />
    <hkern u1="v" u2="J" k="53" />
    <hkern u1="v" u2="A" k="24" />
    <hkern u1="w" u2="Y" k="32" />
    <hkern u1="w" u2="T" k="32" />
    <hkern u1="w" u2="J" k="41" />
    <hkern u1="w" u2="A" k="28" />
    <hkern u1="x" u2="Y" k="49" />
    <hkern u1="x" u2="T" k="41" />
    <hkern u1="y" u2="g" k="8" />
    <hkern u1="y" u2="Y" k="28" />
    <hkern u1="y" u2="T" k="56" />
    <hkern u1="y" u2="J" k="24" />
    <hkern u1="y" u2="A" k="12" />
    <hkern u1="z" u2="Y" k="41" />
    <hkern u1="z" u2="T" k="24" />
  </font>
</defs></svg>
